^C:\GitHub\head-recognition\darknet\build\darknet\yolo_cpp_dll_no_gpu.vcxproj
C:\GitHub\head-recognition\darknet\build\darknet\x64\yolo_cpp_dll_no_gpu.lib
C:\GitHub\head-recognition\darknet\build\darknet\x64\yolo_cpp_dll_no_gpu.exp
