^C:\GitHub\head-recognition\darknet\build\darknet\yolo_cpp_dll.vcxproj
C:\GitHub\head-recognition\darknet\build\darknet\x64\yolo_cpp_dll.lib
C:\GitHub\head-recognition\darknet\build\darknet\x64\yolo_cpp_dll.exp
^C:\GitHub\head-recognition\darknet\build\darknet\yolo_cpp_dll.vcxproj
C:\GitHub\head-recognition\darknet\build\darknet\x64\yolo_cpp_dll.lib
C:\GitHub\head-recognition\darknet\build\darknet\x64\yolo_cpp_dll.exp
^C:\GitHub\head-recognition\darknet\build\darknet\yolo_cpp_dll.vcxproj
C:\GitHub\head-recognition\darknet\build\darknet\x64\yolo_cpp_dll.lib
C:\GitHub\head-recognition\darknet\build\darknet\x64\yolo_cpp_dll.exp
