^C:\GitHub\head-recognition\darknet\build\darknet\darknet_no_gpu.vcxproj
C:\GitHub\head-recognition\darknet\build\darknet\x64\darknet_no_gpu.ipdb
C:\GitHub\head-recognition\darknet\build\darknet\x64\darknet_no_gpu.iobj
