^C:\GITHUB\HEAD-RECOGNITION\DARKNET\SRC\ACTIVATION_KERNELS.CU
DARKNET.DIR\RELEASE\ACTIVATION_KERNELS.OBJ
^C:\GITHUB\HEAD-RECOGNITION\DARKNET\SRC\AVGPOOL_LAYER_KERNELS.CU
DARKNET.DIR\RELEASE\AVGPOOL_LAYER_KERNELS.OBJ
^C:\GITHUB\HEAD-RECOGNITION\DARKNET\SRC\BLAS_KERNELS.CU
DARKNET.DIR\RELEASE\BLAS_KERNELS.OBJ
^C:\GITHUB\HEAD-RECOGNITION\DARKNET\SRC\COL2IM_KERNELS.CU
DARKNET.DIR\RELEASE\COL2IM_KERNELS.OBJ
^C:\GITHUB\HEAD-RECOGNITION\DARKNET\SRC\CONVOLUTIONAL_KERNELS.CU
DARKNET.DIR\RELEASE\CONVOLUTIONAL_KERNELS.OBJ
^C:\GITHUB\HEAD-RECOGNITION\DARKNET\SRC\CROP_LAYER_KERNELS.CU
DARKNET.DIR\RELEASE\CROP_LAYER_KERNELS.OBJ
^C:\GITHUB\HEAD-RECOGNITION\DARKNET\SRC\DECONVOLUTIONAL_KERNELS.CU
DARKNET.DIR\RELEASE\DECONVOLUTIONAL_KERNELS.OBJ
^C:\GITHUB\HEAD-RECOGNITION\DARKNET\SRC\DROPOUT_LAYER_KERNELS.CU
DARKNET.DIR\RELEASE\DROPOUT_LAYER_KERNELS.OBJ
^C:\GITHUB\HEAD-RECOGNITION\DARKNET\SRC\IM2COL_KERNELS.CU
DARKNET.DIR\RELEASE\IM2COL_KERNELS.OBJ
^C:\GITHUB\HEAD-RECOGNITION\DARKNET\SRC\MAXPOOL_LAYER_KERNELS.CU
DARKNET.DIR\RELEASE\MAXPOOL_LAYER_KERNELS.OBJ
^C:\GITHUB\HEAD-RECOGNITION\DARKNET\SRC\NETWORK_KERNELS.CU
DARKNET.DIR\RELEASE\NETWORK_KERNELS.OBJ
