^C:\GITHUB\DARKNET\CMAKELISTS.TXT
C:\GITHUB\DARKNET\CMAKEFILES\3.14.3\CMAKECCOMPILER.CMAKE
C:\GITHUB\DARKNET\CMAKEFILES\3.14.3\CMAKECXXCOMPILER.CMAKE
C:\GITHUB\DARKNET\CMAKEFILES\3.14.3\CMAKERCCOMPILER.CMAKE
C:\GITHUB\DARKNET\CMAKEFILES\3.14.3\CMAKESYSTEM.CMAKE
C:\GITHUB\DARKNET\DARKNETCONFIG.CMAKE.IN
C:\GITHUB\DARKNET\CMAKE\MODULES\FINDPTHREADS_WINDOWS.CMAKE
C:\GITHUB\DARKNET\CMAKE\MODULES\FINDSTB.CMAKE
C:\GITHUB\DARKNET\SRC\VERSION.H.IN
C:\PROGRAM FILES\CMAKE\SHARE\CMAKE-3.14\MODULES\BASICCONFIGVERSION-SAMEMAJORVERSION.CMAKE.IN
C:\PROGRAM FILES\CMAKE\SHARE\CMAKE-3.14\MODULES\CMAKECINFORMATION.CMAKE
C:\PROGRAM FILES\CMAKE\SHARE\CMAKE-3.14\MODULES\CMAKECXXINFORMATION.CMAKE
C:\PROGRAM FILES\CMAKE\SHARE\CMAKE-3.14\MODULES\CMAKECOMMONLANGUAGEINCLUDE.CMAKE
C:\PROGRAM FILES\CMAKE\SHARE\CMAKE-3.14\MODULES\CMAKEGENERICSYSTEM.CMAKE
C:\PROGRAM FILES\CMAKE\SHARE\CMAKE-3.14\MODULES\CMAKEINITIALIZECONFIGS.CMAKE
C:\PROGRAM FILES\CMAKE\SHARE\CMAKE-3.14\MODULES\CMAKELANGUAGEINFORMATION.CMAKE
C:\PROGRAM FILES\CMAKE\SHARE\CMAKE-3.14\MODULES\CMAKEPACKAGECONFIGHELPERS.CMAKE
C:\PROGRAM FILES\CMAKE\SHARE\CMAKE-3.14\MODULES\CMAKEPARSEIMPLICITLINKINFO.CMAKE
C:\PROGRAM FILES\CMAKE\SHARE\CMAKE-3.14\MODULES\CMAKERCINFORMATION.CMAKE
C:\PROGRAM FILES\CMAKE\SHARE\CMAKE-3.14\MODULES\CMAKESYSTEMSPECIFICINFORMATION.CMAKE
C:\PROGRAM FILES\CMAKE\SHARE\CMAKE-3.14\MODULES\CMAKESYSTEMSPECIFICINITIALIZE.CMAKE
C:\PROGRAM FILES\CMAKE\SHARE\CMAKE-3.14\MODULES\CHECKINCLUDEFILE.CMAKE
C:\PROGRAM FILES\CMAKE\SHARE\CMAKE-3.14\MODULES\CHECKLANGUAGE.CMAKE
C:\PROGRAM FILES\CMAKE\SHARE\CMAKE-3.14\MODULES\CHECKLIBRARYEXISTS.CMAKE
C:\PROGRAM FILES\CMAKE\SHARE\CMAKE-3.14\MODULES\CHECKSYMBOLEXISTS.CMAKE
C:\PROGRAM FILES\CMAKE\SHARE\CMAKE-3.14\MODULES\COMPILER\CMAKECOMMONCOMPILERMACROS.CMAKE
C:\PROGRAM FILES\CMAKE\SHARE\CMAKE-3.14\MODULES\COMPILER\MSVC-C.CMAKE
C:\PROGRAM FILES\CMAKE\SHARE\CMAKE-3.14\MODULES\COMPILER\MSVC-CXX.CMAKE
C:\PROGRAM FILES\CMAKE\SHARE\CMAKE-3.14\MODULES\FINDOPENMP.CMAKE
C:\PROGRAM FILES\CMAKE\SHARE\CMAKE-3.14\MODULES\FINDPACKAGEHANDLESTANDARDARGS.CMAKE
C:\PROGRAM FILES\CMAKE\SHARE\CMAKE-3.14\MODULES\FINDPACKAGEMESSAGE.CMAKE
C:\PROGRAM FILES\CMAKE\SHARE\CMAKE-3.14\MODULES\FINDTHREADS.CMAKE
C:\PROGRAM FILES\CMAKE\SHARE\CMAKE-3.14\MODULES\PLATFORM\WINDOWS-MSVC-C.CMAKE
C:\PROGRAM FILES\CMAKE\SHARE\CMAKE-3.14\MODULES\PLATFORM\WINDOWS-MSVC-CXX.CMAKE
C:\PROGRAM FILES\CMAKE\SHARE\CMAKE-3.14\MODULES\PLATFORM\WINDOWS-MSVC.CMAKE
C:\PROGRAM FILES\CMAKE\SHARE\CMAKE-3.14\MODULES\PLATFORM\WINDOWS.CMAKE
C:\PROGRAM FILES\CMAKE\SHARE\CMAKE-3.14\MODULES\PLATFORM\WINDOWSPATHS.CMAKE
C:\PROGRAM FILES\CMAKE\SHARE\CMAKE-3.14\MODULES\SELECTLIBRARYCONFIGURATIONS.CMAKE
C:\PROGRAM FILES\CMAKE\SHARE\CMAKE-3.14\MODULES\WRITEBASICCONFIGVERSIONFILE.CMAKE
C:\OPENCV_3.0\OPENCV\BUILD\OPENCVCONFIG-VERSION.CMAKE
C:\OPENCV_3.0\OPENCV\BUILD\OPENCVCONFIG.CMAKE
