^C:\GITHUB\HEAD-RECOGNITION\DARKNET\SRC\ACTIVATIONS.C
/c /I\INCLUDE /IC:\OPENCV_3.0\OPENCV\BUILD\INCLUDE /I..\..\INCLUDE /I..\..\3RDPARTY\STB\INCLUDE /I..\..\3RDPARTY\PTHREADS\INCLUDE /I"..\..\..\..\..\PROGRAM FILES\NVIDIA GPU COMPUTING TOOLKIT\CUDA\V10.1\INCLUDE" /I"..\..\..\..\..\PROGRAM FILES\NVIDIA GPU COMPUTING TOOLKIT\CUDA\V10.1\INCLUDE" /I"C:\PROGRAM FILES\NVIDIA GPU COMPUTING TOOLKIT\CUDNN\INCLUDE" /I"C:\PROGRAM FILES\NVIDIA GPU COMPUTING TOOLKIT\CUDNN\INCLUDE" /Zi /nologo /W3 /WX- /sdl /O1 /Oi /GL /D CUDNN /D CUDNN_HALF /D GPU /D LIB_EXPORTS /D _TIMESPEC_DEFINED /D _SCL_SECURE_NO_WARNINGS /D _CRT_SECURE_NO_WARNINGS /D WIN32 /D NDEBUG /D _CONSOLE /D _LIB /D _WINDLL /D _MBCS /Gm- /EHsc /MD /GS /Gy /fp:precise /Zc:wchar_t /Zc:forScope /Zc:inline /Fo"X64\DLL_RELEASE\\" /Fd"X64\DLL_RELEASE\VC140.PDB" /Gd /TC C:\GITHUB\HEAD-RECOGNITION\DARKNET\SRC\ACTIVATIONS.C
^C:\GITHUB\HEAD-RECOGNITION\DARKNET\SRC\ACTIVATION_LAYER.C
/c /I\INCLUDE /IC:\OPENCV_3.0\OPENCV\BUILD\INCLUDE /I..\..\INCLUDE /I..\..\3RDPARTY\STB\INCLUDE /I..\..\3RDPARTY\PTHREADS\INCLUDE /I"..\..\..\..\..\PROGRAM FILES\NVIDIA GPU COMPUTING TOOLKIT\CUDA\V10.1\INCLUDE" /I"..\..\..\..\..\PROGRAM FILES\NVIDIA GPU COMPUTING TOOLKIT\CUDA\V10.1\INCLUDE" /I"C:\PROGRAM FILES\NVIDIA GPU COMPUTING TOOLKIT\CUDNN\INCLUDE" /I"C:\PROGRAM FILES\NVIDIA GPU COMPUTING TOOLKIT\CUDNN\INCLUDE" /Zi /nologo /W3 /WX- /sdl /O1 /Oi /GL /D CUDNN /D CUDNN_HALF /D GPU /D LIB_EXPORTS /D _TIMESPEC_DEFINED /D _SCL_SECURE_NO_WARNINGS /D _CRT_SECURE_NO_WARNINGS /D WIN32 /D NDEBUG /D _CONSOLE /D _LIB /D _WINDLL /D _MBCS /Gm- /EHsc /MD /GS /Gy /fp:precise /Zc:wchar_t /Zc:forScope /Zc:inline /Fo"X64\DLL_RELEASE\\" /Fd"X64\DLL_RELEASE\VC140.PDB" /Gd /TC C:\GITHUB\HEAD-RECOGNITION\DARKNET\SRC\ACTIVATION_LAYER.C
^C:\GITHUB\HEAD-RECOGNITION\DARKNET\SRC\ART.C
/c /I\INCLUDE /IC:\OPENCV_3.0\OPENCV\BUILD\INCLUDE /I..\..\INCLUDE /I..\..\3RDPARTY\STB\INCLUDE /I..\..\3RDPARTY\PTHREADS\INCLUDE /I"..\..\..\..\..\PROGRAM FILES\NVIDIA GPU COMPUTING TOOLKIT\CUDA\V10.1\INCLUDE" /I"..\..\..\..\..\PROGRAM FILES\NVIDIA GPU COMPUTING TOOLKIT\CUDA\V10.1\INCLUDE" /I"C:\PROGRAM FILES\NVIDIA GPU COMPUTING TOOLKIT\CUDNN\INCLUDE" /I"C:\PROGRAM FILES\NVIDIA GPU COMPUTING TOOLKIT\CUDNN\INCLUDE" /Zi /nologo /W3 /WX- /sdl /O1 /Oi /GL /D CUDNN /D CUDNN_HALF /D GPU /D LIB_EXPORTS /D _TIMESPEC_DEFINED /D _SCL_SECURE_NO_WARNINGS /D _CRT_SECURE_NO_WARNINGS /D WIN32 /D NDEBUG /D _CONSOLE /D _LIB /D _WINDLL /D _MBCS /Gm- /EHsc /MD /GS /Gy /fp:precise /Zc:wchar_t /Zc:forScope /Zc:inline /Fo"X64\DLL_RELEASE\\" /Fd"X64\DLL_RELEASE\VC140.PDB" /Gd /TC C:\GITHUB\HEAD-RECOGNITION\DARKNET\SRC\ART.C
^C:\GITHUB\HEAD-RECOGNITION\DARKNET\SRC\AVGPOOL_LAYER.C
/c /I\INCLUDE /IC:\OPENCV_3.0\OPENCV\BUILD\INCLUDE /I..\..\INCLUDE /I..\..\3RDPARTY\STB\INCLUDE /I..\..\3RDPARTY\PTHREADS\INCLUDE /I"..\..\..\..\..\PROGRAM FILES\NVIDIA GPU COMPUTING TOOLKIT\CUDA\V10.1\INCLUDE" /I"..\..\..\..\..\PROGRAM FILES\NVIDIA GPU COMPUTING TOOLKIT\CUDA\V10.1\INCLUDE" /I"C:\PROGRAM FILES\NVIDIA GPU COMPUTING TOOLKIT\CUDNN\INCLUDE" /I"C:\PROGRAM FILES\NVIDIA GPU COMPUTING TOOLKIT\CUDNN\INCLUDE" /Zi /nologo /W3 /WX- /sdl /O1 /Oi /GL /D CUDNN /D CUDNN_HALF /D GPU /D LIB_EXPORTS /D _TIMESPEC_DEFINED /D _SCL_SECURE_NO_WARNINGS /D _CRT_SECURE_NO_WARNINGS /D WIN32 /D NDEBUG /D _CONSOLE /D _LIB /D _WINDLL /D _MBCS /Gm- /EHsc /MD /GS /Gy /fp:precise /Zc:wchar_t /Zc:forScope /Zc:inline /Fo"X64\DLL_RELEASE\\" /Fd"X64\DLL_RELEASE\VC140.PDB" /Gd /TC C:\GITHUB\HEAD-RECOGNITION\DARKNET\SRC\AVGPOOL_LAYER.C
^C:\GITHUB\HEAD-RECOGNITION\DARKNET\SRC\BATCHNORM_LAYER.C
/c /I\INCLUDE /IC:\OPENCV_3.0\OPENCV\BUILD\INCLUDE /I..\..\INCLUDE /I..\..\3RDPARTY\STB\INCLUDE /I..\..\3RDPARTY\PTHREADS\INCLUDE /I"..\..\..\..\..\PROGRAM FILES\NVIDIA GPU COMPUTING TOOLKIT\CUDA\V10.1\INCLUDE" /I"..\..\..\..\..\PROGRAM FILES\NVIDIA GPU COMPUTING TOOLKIT\CUDA\V10.1\INCLUDE" /I"C:\PROGRAM FILES\NVIDIA GPU COMPUTING TOOLKIT\CUDNN\INCLUDE" /I"C:\PROGRAM FILES\NVIDIA GPU COMPUTING TOOLKIT\CUDNN\INCLUDE" /Zi /nologo /W3 /WX- /sdl /O1 /Oi /GL /D CUDNN /D CUDNN_HALF /D GPU /D LIB_EXPORTS /D _TIMESPEC_DEFINED /D _SCL_SECURE_NO_WARNINGS /D _CRT_SECURE_NO_WARNINGS /D WIN32 /D NDEBUG /D _CONSOLE /D _LIB /D _WINDLL /D _MBCS /Gm- /EHsc /MD /GS /Gy /fp:precise /Zc:wchar_t /Zc:forScope /Zc:inline /Fo"X64\DLL_RELEASE\\" /Fd"X64\DLL_RELEASE\VC140.PDB" /Gd /TC C:\GITHUB\HEAD-RECOGNITION\DARKNET\SRC\BATCHNORM_LAYER.C
^C:\GITHUB\HEAD-RECOGNITION\DARKNET\SRC\BLAS.C
/c /I\INCLUDE /IC:\OPENCV_3.0\OPENCV\BUILD\INCLUDE /I..\..\INCLUDE /I..\..\3RDPARTY\STB\INCLUDE /I..\..\3RDPARTY\PTHREADS\INCLUDE /I"..\..\..\..\..\PROGRAM FILES\NVIDIA GPU COMPUTING TOOLKIT\CUDA\V10.1\INCLUDE" /I"..\..\..\..\..\PROGRAM FILES\NVIDIA GPU COMPUTING TOOLKIT\CUDA\V10.1\INCLUDE" /I"C:\PROGRAM FILES\NVIDIA GPU COMPUTING TOOLKIT\CUDNN\INCLUDE" /I"C:\PROGRAM FILES\NVIDIA GPU COMPUTING TOOLKIT\CUDNN\INCLUDE" /Zi /nologo /W3 /WX- /sdl /O1 /Oi /GL /D CUDNN /D CUDNN_HALF /D GPU /D LIB_EXPORTS /D _TIMESPEC_DEFINED /D _SCL_SECURE_NO_WARNINGS /D _CRT_SECURE_NO_WARNINGS /D WIN32 /D NDEBUG /D _CONSOLE /D _LIB /D _WINDLL /D _MBCS /Gm- /EHsc /MD /GS /Gy /fp:precise /Zc:wchar_t /Zc:forScope /Zc:inline /Fo"X64\DLL_RELEASE\\" /Fd"X64\DLL_RELEASE\VC140.PDB" /Gd /TC C:\GITHUB\HEAD-RECOGNITION\DARKNET\SRC\BLAS.C
^C:\GITHUB\HEAD-RECOGNITION\DARKNET\SRC\BOX.C
/c /I\INCLUDE /IC:\OPENCV_3.0\OPENCV\BUILD\INCLUDE /I..\..\INCLUDE /I..\..\3RDPARTY\STB\INCLUDE /I..\..\3RDPARTY\PTHREADS\INCLUDE /I"..\..\..\..\..\PROGRAM FILES\NVIDIA GPU COMPUTING TOOLKIT\CUDA\V10.1\INCLUDE" /I"..\..\..\..\..\PROGRAM FILES\NVIDIA GPU COMPUTING TOOLKIT\CUDA\V10.1\INCLUDE" /I"C:\PROGRAM FILES\NVIDIA GPU COMPUTING TOOLKIT\CUDNN\INCLUDE" /I"C:\PROGRAM FILES\NVIDIA GPU COMPUTING TOOLKIT\CUDNN\INCLUDE" /Zi /nologo /W3 /WX- /sdl /O1 /Oi /GL /D CUDNN /D CUDNN_HALF /D GPU /D LIB_EXPORTS /D _TIMESPEC_DEFINED /D _SCL_SECURE_NO_WARNINGS /D _CRT_SECURE_NO_WARNINGS /D WIN32 /D NDEBUG /D _CONSOLE /D _LIB /D _WINDLL /D _MBCS /Gm- /EHsc /MD /GS /Gy /fp:precise /Zc:wchar_t /Zc:forScope /Zc:inline /Fo"X64\DLL_RELEASE\\" /Fd"X64\DLL_RELEASE\VC140.PDB" /Gd /TC C:\GITHUB\HEAD-RECOGNITION\DARKNET\SRC\BOX.C
^C:\GITHUB\HEAD-RECOGNITION\DARKNET\SRC\CAPTCHA.C
/c /I\INCLUDE /IC:\OPENCV_3.0\OPENCV\BUILD\INCLUDE /I..\..\INCLUDE /I..\..\3RDPARTY\STB\INCLUDE /I..\..\3RDPARTY\PTHREADS\INCLUDE /I"..\..\..\..\..\PROGRAM FILES\NVIDIA GPU COMPUTING TOOLKIT\CUDA\V10.1\INCLUDE" /I"..\..\..\..\..\PROGRAM FILES\NVIDIA GPU COMPUTING TOOLKIT\CUDA\V10.1\INCLUDE" /I"C:\PROGRAM FILES\NVIDIA GPU COMPUTING TOOLKIT\CUDNN\INCLUDE" /I"C:\PROGRAM FILES\NVIDIA GPU COMPUTING TOOLKIT\CUDNN\INCLUDE" /Zi /nologo /W3 /WX- /sdl /O1 /Oi /GL /D CUDNN /D CUDNN_HALF /D GPU /D LIB_EXPORTS /D _TIMESPEC_DEFINED /D _SCL_SECURE_NO_WARNINGS /D _CRT_SECURE_NO_WARNINGS /D WIN32 /D NDEBUG /D _CONSOLE /D _LIB /D _WINDLL /D _MBCS /Gm- /EHsc /MD /GS /Gy /fp:precise /Zc:wchar_t /Zc:forScope /Zc:inline /Fo"X64\DLL_RELEASE\\" /Fd"X64\DLL_RELEASE\VC140.PDB" /Gd /TC C:\GITHUB\HEAD-RECOGNITION\DARKNET\SRC\CAPTCHA.C
^C:\GITHUB\HEAD-RECOGNITION\DARKNET\SRC\CIFAR.C
/c /I\INCLUDE /IC:\OPENCV_3.0\OPENCV\BUILD\INCLUDE /I..\..\INCLUDE /I..\..\3RDPARTY\STB\INCLUDE /I..\..\3RDPARTY\PTHREADS\INCLUDE /I"..\..\..\..\..\PROGRAM FILES\NVIDIA GPU COMPUTING TOOLKIT\CUDA\V10.1\INCLUDE" /I"..\..\..\..\..\PROGRAM FILES\NVIDIA GPU COMPUTING TOOLKIT\CUDA\V10.1\INCLUDE" /I"C:\PROGRAM FILES\NVIDIA GPU COMPUTING TOOLKIT\CUDNN\INCLUDE" /I"C:\PROGRAM FILES\NVIDIA GPU COMPUTING TOOLKIT\CUDNN\INCLUDE" /Zi /nologo /W3 /WX- /sdl /O1 /Oi /GL /D CUDNN /D CUDNN_HALF /D GPU /D LIB_EXPORTS /D _TIMESPEC_DEFINED /D _SCL_SECURE_NO_WARNINGS /D _CRT_SECURE_NO_WARNINGS /D WIN32 /D NDEBUG /D _CONSOLE /D _LIB /D _WINDLL /D _MBCS /Gm- /EHsc /MD /GS /Gy /fp:precise /Zc:wchar_t /Zc:forScope /Zc:inline /Fo"X64\DLL_RELEASE\\" /Fd"X64\DLL_RELEASE\VC140.PDB" /Gd /TC C:\GITHUB\HEAD-RECOGNITION\DARKNET\SRC\CIFAR.C
^C:\GITHUB\HEAD-RECOGNITION\DARKNET\SRC\CLASSIFIER.C
/c /I\INCLUDE /IC:\OPENCV_3.0\OPENCV\BUILD\INCLUDE /I..\..\INCLUDE /I..\..\3RDPARTY\STB\INCLUDE /I..\..\3RDPARTY\PTHREADS\INCLUDE /I"..\..\..\..\..\PROGRAM FILES\NVIDIA GPU COMPUTING TOOLKIT\CUDA\V10.1\INCLUDE" /I"..\..\..\..\..\PROGRAM FILES\NVIDIA GPU COMPUTING TOOLKIT\CUDA\V10.1\INCLUDE" /I"C:\PROGRAM FILES\NVIDIA GPU COMPUTING TOOLKIT\CUDNN\INCLUDE" /I"C:\PROGRAM FILES\NVIDIA GPU COMPUTING TOOLKIT\CUDNN\INCLUDE" /Zi /nologo /W3 /WX- /sdl /O1 /Oi /GL /D CUDNN /D CUDNN_HALF /D GPU /D LIB_EXPORTS /D _TIMESPEC_DEFINED /D _SCL_SECURE_NO_WARNINGS /D _CRT_SECURE_NO_WARNINGS /D WIN32 /D NDEBUG /D _CONSOLE /D _LIB /D _WINDLL /D _MBCS /Gm- /EHsc /MD /GS /Gy /fp:precise /Zc:wchar_t /Zc:forScope /Zc:inline /Fo"X64\DLL_RELEASE\\" /Fd"X64\DLL_RELEASE\VC140.PDB" /Gd /TC C:\GITHUB\HEAD-RECOGNITION\DARKNET\SRC\CLASSIFIER.C
^C:\GITHUB\HEAD-RECOGNITION\DARKNET\SRC\COCO.C
/c /I\INCLUDE /IC:\OPENCV_3.0\OPENCV\BUILD\INCLUDE /I..\..\INCLUDE /I..\..\3RDPARTY\STB\INCLUDE /I..\..\3RDPARTY\PTHREADS\INCLUDE /I"..\..\..\..\..\PROGRAM FILES\NVIDIA GPU COMPUTING TOOLKIT\CUDA\V10.1\INCLUDE" /I"..\..\..\..\..\PROGRAM FILES\NVIDIA GPU COMPUTING TOOLKIT\CUDA\V10.1\INCLUDE" /I"C:\PROGRAM FILES\NVIDIA GPU COMPUTING TOOLKIT\CUDNN\INCLUDE" /I"C:\PROGRAM FILES\NVIDIA GPU COMPUTING TOOLKIT\CUDNN\INCLUDE" /Zi /nologo /W3 /WX- /sdl /O1 /Oi /GL /D CUDNN /D CUDNN_HALF /D GPU /D LIB_EXPORTS /D _TIMESPEC_DEFINED /D _SCL_SECURE_NO_WARNINGS /D _CRT_SECURE_NO_WARNINGS /D WIN32 /D NDEBUG /D _CONSOLE /D _LIB /D _WINDLL /D _MBCS /Gm- /EHsc /MD /GS /Gy /fp:precise /Zc:wchar_t /Zc:forScope /Zc:inline /Fo"X64\DLL_RELEASE\\" /Fd"X64\DLL_RELEASE\VC140.PDB" /Gd /TC C:\GITHUB\HEAD-RECOGNITION\DARKNET\SRC\COCO.C
^C:\GITHUB\HEAD-RECOGNITION\DARKNET\SRC\COL2IM.C
/c /I\INCLUDE /IC:\OPENCV_3.0\OPENCV\BUILD\INCLUDE /I..\..\INCLUDE /I..\..\3RDPARTY\STB\INCLUDE /I..\..\3RDPARTY\PTHREADS\INCLUDE /I"..\..\..\..\..\PROGRAM FILES\NVIDIA GPU COMPUTING TOOLKIT\CUDA\V10.1\INCLUDE" /I"..\..\..\..\..\PROGRAM FILES\NVIDIA GPU COMPUTING TOOLKIT\CUDA\V10.1\INCLUDE" /I"C:\PROGRAM FILES\NVIDIA GPU COMPUTING TOOLKIT\CUDNN\INCLUDE" /I"C:\PROGRAM FILES\NVIDIA GPU COMPUTING TOOLKIT\CUDNN\INCLUDE" /Zi /nologo /W3 /WX- /sdl /O1 /Oi /GL /D CUDNN /D CUDNN_HALF /D GPU /D LIB_EXPORTS /D _TIMESPEC_DEFINED /D _SCL_SECURE_NO_WARNINGS /D _CRT_SECURE_NO_WARNINGS /D WIN32 /D NDEBUG /D _CONSOLE /D _LIB /D _WINDLL /D _MBCS /Gm- /EHsc /MD /GS /Gy /fp:precise /Zc:wchar_t /Zc:forScope /Zc:inline /Fo"X64\DLL_RELEASE\\" /Fd"X64\DLL_RELEASE\VC140.PDB" /Gd /TC C:\GITHUB\HEAD-RECOGNITION\DARKNET\SRC\COL2IM.C
^C:\GITHUB\HEAD-RECOGNITION\DARKNET\SRC\COMPARE.C
/c /I\INCLUDE /IC:\OPENCV_3.0\OPENCV\BUILD\INCLUDE /I..\..\INCLUDE /I..\..\3RDPARTY\STB\INCLUDE /I..\..\3RDPARTY\PTHREADS\INCLUDE /I"..\..\..\..\..\PROGRAM FILES\NVIDIA GPU COMPUTING TOOLKIT\CUDA\V10.1\INCLUDE" /I"..\..\..\..\..\PROGRAM FILES\NVIDIA GPU COMPUTING TOOLKIT\CUDA\V10.1\INCLUDE" /I"C:\PROGRAM FILES\NVIDIA GPU COMPUTING TOOLKIT\CUDNN\INCLUDE" /I"C:\PROGRAM FILES\NVIDIA GPU COMPUTING TOOLKIT\CUDNN\INCLUDE" /Zi /nologo /W3 /WX- /sdl /O1 /Oi /GL /D CUDNN /D CUDNN_HALF /D GPU /D LIB_EXPORTS /D _TIMESPEC_DEFINED /D _SCL_SECURE_NO_WARNINGS /D _CRT_SECURE_NO_WARNINGS /D WIN32 /D NDEBUG /D _CONSOLE /D _LIB /D _WINDLL /D _MBCS /Gm- /EHsc /MD /GS /Gy /fp:precise /Zc:wchar_t /Zc:forScope /Zc:inline /Fo"X64\DLL_RELEASE\\" /Fd"X64\DLL_RELEASE\VC140.PDB" /Gd /TC C:\GITHUB\HEAD-RECOGNITION\DARKNET\SRC\COMPARE.C
^C:\GITHUB\HEAD-RECOGNITION\DARKNET\SRC\CONNECTED_LAYER.C
/c /I\INCLUDE /IC:\OPENCV_3.0\OPENCV\BUILD\INCLUDE /I..\..\INCLUDE /I..\..\3RDPARTY\STB\INCLUDE /I..\..\3RDPARTY\PTHREADS\INCLUDE /I"..\..\..\..\..\PROGRAM FILES\NVIDIA GPU COMPUTING TOOLKIT\CUDA\V10.1\INCLUDE" /I"..\..\..\..\..\PROGRAM FILES\NVIDIA GPU COMPUTING TOOLKIT\CUDA\V10.1\INCLUDE" /I"C:\PROGRAM FILES\NVIDIA GPU COMPUTING TOOLKIT\CUDNN\INCLUDE" /I"C:\PROGRAM FILES\NVIDIA GPU COMPUTING TOOLKIT\CUDNN\INCLUDE" /Zi /nologo /W3 /WX- /sdl /O1 /Oi /GL /D CUDNN /D CUDNN_HALF /D GPU /D LIB_EXPORTS /D _TIMESPEC_DEFINED /D _SCL_SECURE_NO_WARNINGS /D _CRT_SECURE_NO_WARNINGS /D WIN32 /D NDEBUG /D _CONSOLE /D _LIB /D _WINDLL /D _MBCS /Gm- /EHsc /MD /GS /Gy /fp:precise /Zc:wchar_t /Zc:forScope /Zc:inline /Fo"X64\DLL_RELEASE\\" /Fd"X64\DLL_RELEASE\VC140.PDB" /Gd /TC C:\GITHUB\HEAD-RECOGNITION\DARKNET\SRC\CONNECTED_LAYER.C
^C:\GITHUB\HEAD-RECOGNITION\DARKNET\SRC\CONVOLUTIONAL_LAYER.C
/c /I\INCLUDE /IC:\OPENCV_3.0\OPENCV\BUILD\INCLUDE /I..\..\INCLUDE /I..\..\3RDPARTY\STB\INCLUDE /I..\..\3RDPARTY\PTHREADS\INCLUDE /I"..\..\..\..\..\PROGRAM FILES\NVIDIA GPU COMPUTING TOOLKIT\CUDA\V10.1\INCLUDE" /I"..\..\..\..\..\PROGRAM FILES\NVIDIA GPU COMPUTING TOOLKIT\CUDA\V10.1\INCLUDE" /I"C:\PROGRAM FILES\NVIDIA GPU COMPUTING TOOLKIT\CUDNN\INCLUDE" /I"C:\PROGRAM FILES\NVIDIA GPU COMPUTING TOOLKIT\CUDNN\INCLUDE" /Zi /nologo /W3 /WX- /sdl /O1 /Oi /GL /D CUDNN /D CUDNN_HALF /D GPU /D LIB_EXPORTS /D _TIMESPEC_DEFINED /D _SCL_SECURE_NO_WARNINGS /D _CRT_SECURE_NO_WARNINGS /D WIN32 /D NDEBUG /D _CONSOLE /D _LIB /D _WINDLL /D _MBCS /Gm- /EHsc /MD /GS /Gy /fp:precise /Zc:wchar_t /Zc:forScope /Zc:inline /Fo"X64\DLL_RELEASE\\" /Fd"X64\DLL_RELEASE\VC140.PDB" /Gd /TC C:\GITHUB\HEAD-RECOGNITION\DARKNET\SRC\CONVOLUTIONAL_LAYER.C
^C:\GITHUB\HEAD-RECOGNITION\DARKNET\SRC\COST_LAYER.C
/c /I\INCLUDE /IC:\OPENCV_3.0\OPENCV\BUILD\INCLUDE /I..\..\INCLUDE /I..\..\3RDPARTY\STB\INCLUDE /I..\..\3RDPARTY\PTHREADS\INCLUDE /I"..\..\..\..\..\PROGRAM FILES\NVIDIA GPU COMPUTING TOOLKIT\CUDA\V10.1\INCLUDE" /I"..\..\..\..\..\PROGRAM FILES\NVIDIA GPU COMPUTING TOOLKIT\CUDA\V10.1\INCLUDE" /I"C:\PROGRAM FILES\NVIDIA GPU COMPUTING TOOLKIT\CUDNN\INCLUDE" /I"C:\PROGRAM FILES\NVIDIA GPU COMPUTING TOOLKIT\CUDNN\INCLUDE" /Zi /nologo /W3 /WX- /sdl /O1 /Oi /GL /D CUDNN /D CUDNN_HALF /D GPU /D LIB_EXPORTS /D _TIMESPEC_DEFINED /D _SCL_SECURE_NO_WARNINGS /D _CRT_SECURE_NO_WARNINGS /D WIN32 /D NDEBUG /D _CONSOLE /D _LIB /D _WINDLL /D _MBCS /Gm- /EHsc /MD /GS /Gy /fp:precise /Zc:wchar_t /Zc:forScope /Zc:inline /Fo"X64\DLL_RELEASE\\" /Fd"X64\DLL_RELEASE\VC140.PDB" /Gd /TC C:\GITHUB\HEAD-RECOGNITION\DARKNET\SRC\COST_LAYER.C
^C:\GITHUB\HEAD-RECOGNITION\DARKNET\SRC\CPU_GEMM.C
/c /I\INCLUDE /IC:\OPENCV_3.0\OPENCV\BUILD\INCLUDE /I..\..\INCLUDE /I..\..\3RDPARTY\STB\INCLUDE /I..\..\3RDPARTY\PTHREADS\INCLUDE /I"..\..\..\..\..\PROGRAM FILES\NVIDIA GPU COMPUTING TOOLKIT\CUDA\V10.1\INCLUDE" /I"..\..\..\..\..\PROGRAM FILES\NVIDIA GPU COMPUTING TOOLKIT\CUDA\V10.1\INCLUDE" /I"C:\PROGRAM FILES\NVIDIA GPU COMPUTING TOOLKIT\CUDNN\INCLUDE" /I"C:\PROGRAM FILES\NVIDIA GPU COMPUTING TOOLKIT\CUDNN\INCLUDE" /Zi /nologo /W3 /WX- /sdl /O1 /Oi /GL /D CUDNN /D CUDNN_HALF /D GPU /D LIB_EXPORTS /D _TIMESPEC_DEFINED /D _SCL_SECURE_NO_WARNINGS /D _CRT_SECURE_NO_WARNINGS /D WIN32 /D NDEBUG /D _CONSOLE /D _LIB /D _WINDLL /D _MBCS /Gm- /EHsc /MD /GS /Gy /fp:precise /Zc:wchar_t /Zc:forScope /Zc:inline /Fo"X64\DLL_RELEASE\\" /Fd"X64\DLL_RELEASE\VC140.PDB" /Gd /TC C:\GITHUB\HEAD-RECOGNITION\DARKNET\SRC\CPU_GEMM.C
^C:\GITHUB\HEAD-RECOGNITION\DARKNET\SRC\CRNN_LAYER.C
/c /I\INCLUDE /IC:\OPENCV_3.0\OPENCV\BUILD\INCLUDE /I..\..\INCLUDE /I..\..\3RDPARTY\STB\INCLUDE /I..\..\3RDPARTY\PTHREADS\INCLUDE /I"..\..\..\..\..\PROGRAM FILES\NVIDIA GPU COMPUTING TOOLKIT\CUDA\V10.1\INCLUDE" /I"..\..\..\..\..\PROGRAM FILES\NVIDIA GPU COMPUTING TOOLKIT\CUDA\V10.1\INCLUDE" /I"C:\PROGRAM FILES\NVIDIA GPU COMPUTING TOOLKIT\CUDNN\INCLUDE" /I"C:\PROGRAM FILES\NVIDIA GPU COMPUTING TOOLKIT\CUDNN\INCLUDE" /Zi /nologo /W3 /WX- /sdl /O1 /Oi /GL /D CUDNN /D CUDNN_HALF /D GPU /D LIB_EXPORTS /D _TIMESPEC_DEFINED /D _SCL_SECURE_NO_WARNINGS /D _CRT_SECURE_NO_WARNINGS /D WIN32 /D NDEBUG /D _CONSOLE /D _LIB /D _WINDLL /D _MBCS /Gm- /EHsc /MD /GS /Gy /fp:precise /Zc:wchar_t /Zc:forScope /Zc:inline /Fo"X64\DLL_RELEASE\\" /Fd"X64\DLL_RELEASE\VC140.PDB" /Gd /TC C:\GITHUB\HEAD-RECOGNITION\DARKNET\SRC\CRNN_LAYER.C
^C:\GITHUB\HEAD-RECOGNITION\DARKNET\SRC\CROP_LAYER.C
/c /I\INCLUDE /IC:\OPENCV_3.0\OPENCV\BUILD\INCLUDE /I..\..\INCLUDE /I..\..\3RDPARTY\STB\INCLUDE /I..\..\3RDPARTY\PTHREADS\INCLUDE /I"..\..\..\..\..\PROGRAM FILES\NVIDIA GPU COMPUTING TOOLKIT\CUDA\V10.1\INCLUDE" /I"..\..\..\..\..\PROGRAM FILES\NVIDIA GPU COMPUTING TOOLKIT\CUDA\V10.1\INCLUDE" /I"C:\PROGRAM FILES\NVIDIA GPU COMPUTING TOOLKIT\CUDNN\INCLUDE" /I"C:\PROGRAM FILES\NVIDIA GPU COMPUTING TOOLKIT\CUDNN\INCLUDE" /Zi /nologo /W3 /WX- /sdl /O1 /Oi /GL /D CUDNN /D CUDNN_HALF /D GPU /D LIB_EXPORTS /D _TIMESPEC_DEFINED /D _SCL_SECURE_NO_WARNINGS /D _CRT_SECURE_NO_WARNINGS /D WIN32 /D NDEBUG /D _CONSOLE /D _LIB /D _WINDLL /D _MBCS /Gm- /EHsc /MD /GS /Gy /fp:precise /Zc:wchar_t /Zc:forScope /Zc:inline /Fo"X64\DLL_RELEASE\\" /Fd"X64\DLL_RELEASE\VC140.PDB" /Gd /TC C:\GITHUB\HEAD-RECOGNITION\DARKNET\SRC\CROP_LAYER.C
^C:\GITHUB\HEAD-RECOGNITION\DARKNET\SRC\DARKNET.C
/c /I\INCLUDE /IC:\OPENCV_3.0\OPENCV\BUILD\INCLUDE /I..\..\INCLUDE /I..\..\3RDPARTY\STB\INCLUDE /I..\..\3RDPARTY\PTHREADS\INCLUDE /I"..\..\..\..\..\PROGRAM FILES\NVIDIA GPU COMPUTING TOOLKIT\CUDA\V10.1\INCLUDE" /I"..\..\..\..\..\PROGRAM FILES\NVIDIA GPU COMPUTING TOOLKIT\CUDA\V10.1\INCLUDE" /I"C:\PROGRAM FILES\NVIDIA GPU COMPUTING TOOLKIT\CUDNN\INCLUDE" /I"C:\PROGRAM FILES\NVIDIA GPU COMPUTING TOOLKIT\CUDNN\INCLUDE" /Zi /nologo /W3 /WX- /sdl /O1 /Oi /GL /D CUDNN /D CUDNN_HALF /D GPU /D LIB_EXPORTS /D _TIMESPEC_DEFINED /D _SCL_SECURE_NO_WARNINGS /D _CRT_SECURE_NO_WARNINGS /D WIN32 /D NDEBUG /D _CONSOLE /D _LIB /D _WINDLL /D _MBCS /Gm- /EHsc /MD /GS /Gy /fp:precise /Zc:wchar_t /Zc:forScope /Zc:inline /Fo"X64\DLL_RELEASE\\" /Fd"X64\DLL_RELEASE\VC140.PDB" /Gd /TC C:\GITHUB\HEAD-RECOGNITION\DARKNET\SRC\DARKNET.C
^C:\GITHUB\HEAD-RECOGNITION\DARKNET\SRC\DARK_CUDA.C
/c /I\INCLUDE /IC:\OPENCV_3.0\OPENCV\BUILD\INCLUDE /I..\..\INCLUDE /I..\..\3RDPARTY\STB\INCLUDE /I..\..\3RDPARTY\PTHREADS\INCLUDE /I"..\..\..\..\..\PROGRAM FILES\NVIDIA GPU COMPUTING TOOLKIT\CUDA\V10.1\INCLUDE" /I"..\..\..\..\..\PROGRAM FILES\NVIDIA GPU COMPUTING TOOLKIT\CUDA\V10.1\INCLUDE" /I"C:\PROGRAM FILES\NVIDIA GPU COMPUTING TOOLKIT\CUDNN\INCLUDE" /I"C:\PROGRAM FILES\NVIDIA GPU COMPUTING TOOLKIT\CUDNN\INCLUDE" /Zi /nologo /W3 /WX- /sdl /O1 /Oi /GL /D CUDNN /D CUDNN_HALF /D GPU /D LIB_EXPORTS /D _TIMESPEC_DEFINED /D _SCL_SECURE_NO_WARNINGS /D _CRT_SECURE_NO_WARNINGS /D WIN32 /D NDEBUG /D _CONSOLE /D _LIB /D _WINDLL /D _MBCS /Gm- /EHsc /MD /GS /Gy /fp:precise /Zc:wchar_t /Zc:forScope /Zc:inline /Fo"X64\DLL_RELEASE\\" /Fd"X64\DLL_RELEASE\VC140.PDB" /Gd /TC C:\GITHUB\HEAD-RECOGNITION\DARKNET\SRC\DARK_CUDA.C
^C:\GITHUB\HEAD-RECOGNITION\DARKNET\SRC\DATA.C
/c /I\INCLUDE /IC:\OPENCV_3.0\OPENCV\BUILD\INCLUDE /I..\..\INCLUDE /I..\..\3RDPARTY\STB\INCLUDE /I..\..\3RDPARTY\PTHREADS\INCLUDE /I"..\..\..\..\..\PROGRAM FILES\NVIDIA GPU COMPUTING TOOLKIT\CUDA\V10.1\INCLUDE" /I"..\..\..\..\..\PROGRAM FILES\NVIDIA GPU COMPUTING TOOLKIT\CUDA\V10.1\INCLUDE" /I"C:\PROGRAM FILES\NVIDIA GPU COMPUTING TOOLKIT\CUDNN\INCLUDE" /I"C:\PROGRAM FILES\NVIDIA GPU COMPUTING TOOLKIT\CUDNN\INCLUDE" /Zi /nologo /W3 /WX- /sdl /O1 /Oi /GL /D CUDNN /D CUDNN_HALF /D GPU /D LIB_EXPORTS /D _TIMESPEC_DEFINED /D _SCL_SECURE_NO_WARNINGS /D _CRT_SECURE_NO_WARNINGS /D WIN32 /D NDEBUG /D _CONSOLE /D _LIB /D _WINDLL /D _MBCS /Gm- /EHsc /MD /GS /Gy /fp:precise /Zc:wchar_t /Zc:forScope /Zc:inline /Fo"X64\DLL_RELEASE\\" /Fd"X64\DLL_RELEASE\VC140.PDB" /Gd /TC C:\GITHUB\HEAD-RECOGNITION\DARKNET\SRC\DATA.C
^C:\GITHUB\HEAD-RECOGNITION\DARKNET\SRC\DECONVOLUTIONAL_LAYER.C
/c /I\INCLUDE /IC:\OPENCV_3.0\OPENCV\BUILD\INCLUDE /I..\..\INCLUDE /I..\..\3RDPARTY\STB\INCLUDE /I..\..\3RDPARTY\PTHREADS\INCLUDE /I"..\..\..\..\..\PROGRAM FILES\NVIDIA GPU COMPUTING TOOLKIT\CUDA\V10.1\INCLUDE" /I"..\..\..\..\..\PROGRAM FILES\NVIDIA GPU COMPUTING TOOLKIT\CUDA\V10.1\INCLUDE" /I"C:\PROGRAM FILES\NVIDIA GPU COMPUTING TOOLKIT\CUDNN\INCLUDE" /I"C:\PROGRAM FILES\NVIDIA GPU COMPUTING TOOLKIT\CUDNN\INCLUDE" /Zi /nologo /W3 /WX- /sdl /O1 /Oi /GL /D CUDNN /D CUDNN_HALF /D GPU /D LIB_EXPORTS /D _TIMESPEC_DEFINED /D _SCL_SECURE_NO_WARNINGS /D _CRT_SECURE_NO_WARNINGS /D WIN32 /D NDEBUG /D _CONSOLE /D _LIB /D _WINDLL /D _MBCS /Gm- /EHsc /MD /GS /Gy /fp:precise /Zc:wchar_t /Zc:forScope /Zc:inline /Fo"X64\DLL_RELEASE\\" /Fd"X64\DLL_RELEASE\VC140.PDB" /Gd /TC C:\GITHUB\HEAD-RECOGNITION\DARKNET\SRC\DECONVOLUTIONAL_LAYER.C
^C:\GITHUB\HEAD-RECOGNITION\DARKNET\SRC\DEMO.C
/c /I\INCLUDE /IC:\OPENCV_3.0\OPENCV\BUILD\INCLUDE /I..\..\INCLUDE /I..\..\3RDPARTY\STB\INCLUDE /I..\..\3RDPARTY\PTHREADS\INCLUDE /I"..\..\..\..\..\PROGRAM FILES\NVIDIA GPU COMPUTING TOOLKIT\CUDA\V10.1\INCLUDE" /I"..\..\..\..\..\PROGRAM FILES\NVIDIA GPU COMPUTING TOOLKIT\CUDA\V10.1\INCLUDE" /I"C:\PROGRAM FILES\NVIDIA GPU COMPUTING TOOLKIT\CUDNN\INCLUDE" /I"C:\PROGRAM FILES\NVIDIA GPU COMPUTING TOOLKIT\CUDNN\INCLUDE" /Zi /nologo /W3 /WX- /sdl /O1 /Oi /GL /D CUDNN /D CUDNN_HALF /D GPU /D LIB_EXPORTS /D _TIMESPEC_DEFINED /D _SCL_SECURE_NO_WARNINGS /D _CRT_SECURE_NO_WARNINGS /D WIN32 /D NDEBUG /D _CONSOLE /D _LIB /D _WINDLL /D _MBCS /Gm- /EHsc /MD /GS /Gy /fp:precise /Zc:wchar_t /Zc:forScope /Zc:inline /Fo"X64\DLL_RELEASE\\" /Fd"X64\DLL_RELEASE\VC140.PDB" /Gd /TC C:\GITHUB\HEAD-RECOGNITION\DARKNET\SRC\DEMO.C
^C:\GITHUB\HEAD-RECOGNITION\DARKNET\SRC\DETECTION_LAYER.C
/c /I\INCLUDE /IC:\OPENCV_3.0\OPENCV\BUILD\INCLUDE /I..\..\INCLUDE /I..\..\3RDPARTY\STB\INCLUDE /I..\..\3RDPARTY\PTHREADS\INCLUDE /I"..\..\..\..\..\PROGRAM FILES\NVIDIA GPU COMPUTING TOOLKIT\CUDA\V10.1\INCLUDE" /I"..\..\..\..\..\PROGRAM FILES\NVIDIA GPU COMPUTING TOOLKIT\CUDA\V10.1\INCLUDE" /I"C:\PROGRAM FILES\NVIDIA GPU COMPUTING TOOLKIT\CUDNN\INCLUDE" /I"C:\PROGRAM FILES\NVIDIA GPU COMPUTING TOOLKIT\CUDNN\INCLUDE" /Zi /nologo /W3 /WX- /sdl /O1 /Oi /GL /D CUDNN /D CUDNN_HALF /D GPU /D LIB_EXPORTS /D _TIMESPEC_DEFINED /D _SCL_SECURE_NO_WARNINGS /D _CRT_SECURE_NO_WARNINGS /D WIN32 /D NDEBUG /D _CONSOLE /D _LIB /D _WINDLL /D _MBCS /Gm- /EHsc /MD /GS /Gy /fp:precise /Zc:wchar_t /Zc:forScope /Zc:inline /Fo"X64\DLL_RELEASE\\" /Fd"X64\DLL_RELEASE\VC140.PDB" /Gd /TC C:\GITHUB\HEAD-RECOGNITION\DARKNET\SRC\DETECTION_LAYER.C
^C:\GITHUB\HEAD-RECOGNITION\DARKNET\SRC\DETECTOR.C
/c /I\INCLUDE /IC:\OPENCV_3.0\OPENCV\BUILD\INCLUDE /I..\..\INCLUDE /I..\..\3RDPARTY\STB\INCLUDE /I..\..\3RDPARTY\PTHREADS\INCLUDE /I"..\..\..\..\..\PROGRAM FILES\NVIDIA GPU COMPUTING TOOLKIT\CUDA\V10.1\INCLUDE" /I"..\..\..\..\..\PROGRAM FILES\NVIDIA GPU COMPUTING TOOLKIT\CUDA\V10.1\INCLUDE" /I"C:\PROGRAM FILES\NVIDIA GPU COMPUTING TOOLKIT\CUDNN\INCLUDE" /I"C:\PROGRAM FILES\NVIDIA GPU COMPUTING TOOLKIT\CUDNN\INCLUDE" /Zi /nologo /W3 /WX- /sdl /O1 /Oi /GL /D CUDNN /D CUDNN_HALF /D GPU /D LIB_EXPORTS /D _TIMESPEC_DEFINED /D _SCL_SECURE_NO_WARNINGS /D _CRT_SECURE_NO_WARNINGS /D WIN32 /D NDEBUG /D _CONSOLE /D _LIB /D _WINDLL /D _MBCS /Gm- /EHsc /MD /GS /Gy /fp:precise /Zc:wchar_t /Zc:forScope /Zc:inline /Fo"X64\DLL_RELEASE\\" /Fd"X64\DLL_RELEASE\VC140.PDB" /Gd /TC C:\GITHUB\HEAD-RECOGNITION\DARKNET\SRC\DETECTOR.C
^C:\GITHUB\HEAD-RECOGNITION\DARKNET\SRC\DICE.C
/c /I\INCLUDE /IC:\OPENCV_3.0\OPENCV\BUILD\INCLUDE /I..\..\INCLUDE /I..\..\3RDPARTY\STB\INCLUDE /I..\..\3RDPARTY\PTHREADS\INCLUDE /I"..\..\..\..\..\PROGRAM FILES\NVIDIA GPU COMPUTING TOOLKIT\CUDA\V10.1\INCLUDE" /I"..\..\..\..\..\PROGRAM FILES\NVIDIA GPU COMPUTING TOOLKIT\CUDA\V10.1\INCLUDE" /I"C:\PROGRAM FILES\NVIDIA GPU COMPUTING TOOLKIT\CUDNN\INCLUDE" /I"C:\PROGRAM FILES\NVIDIA GPU COMPUTING TOOLKIT\CUDNN\INCLUDE" /Zi /nologo /W3 /WX- /sdl /O1 /Oi /GL /D CUDNN /D CUDNN_HALF /D GPU /D LIB_EXPORTS /D _TIMESPEC_DEFINED /D _SCL_SECURE_NO_WARNINGS /D _CRT_SECURE_NO_WARNINGS /D WIN32 /D NDEBUG /D _CONSOLE /D _LIB /D _WINDLL /D _MBCS /Gm- /EHsc /MD /GS /Gy /fp:precise /Zc:wchar_t /Zc:forScope /Zc:inline /Fo"X64\DLL_RELEASE\\" /Fd"X64\DLL_RELEASE\VC140.PDB" /Gd /TC C:\GITHUB\HEAD-RECOGNITION\DARKNET\SRC\DICE.C
^C:\GITHUB\HEAD-RECOGNITION\DARKNET\SRC\DROPOUT_LAYER.C
/c /I\INCLUDE /IC:\OPENCV_3.0\OPENCV\BUILD\INCLUDE /I..\..\INCLUDE /I..\..\3RDPARTY\STB\INCLUDE /I..\..\3RDPARTY\PTHREADS\INCLUDE /I"..\..\..\..\..\PROGRAM FILES\NVIDIA GPU COMPUTING TOOLKIT\CUDA\V10.1\INCLUDE" /I"..\..\..\..\..\PROGRAM FILES\NVIDIA GPU COMPUTING TOOLKIT\CUDA\V10.1\INCLUDE" /I"C:\PROGRAM FILES\NVIDIA GPU COMPUTING TOOLKIT\CUDNN\INCLUDE" /I"C:\PROGRAM FILES\NVIDIA GPU COMPUTING TOOLKIT\CUDNN\INCLUDE" /Zi /nologo /W3 /WX- /sdl /O1 /Oi /GL /D CUDNN /D CUDNN_HALF /D GPU /D LIB_EXPORTS /D _TIMESPEC_DEFINED /D _SCL_SECURE_NO_WARNINGS /D _CRT_SECURE_NO_WARNINGS /D WIN32 /D NDEBUG /D _CONSOLE /D _LIB /D _WINDLL /D _MBCS /Gm- /EHsc /MD /GS /Gy /fp:precise /Zc:wchar_t /Zc:forScope /Zc:inline /Fo"X64\DLL_RELEASE\\" /Fd"X64\DLL_RELEASE\VC140.PDB" /Gd /TC C:\GITHUB\HEAD-RECOGNITION\DARKNET\SRC\DROPOUT_LAYER.C
^C:\GITHUB\HEAD-RECOGNITION\DARKNET\SRC\GEMM.C
/c /I\INCLUDE /IC:\OPENCV_3.0\OPENCV\BUILD\INCLUDE /I..\..\INCLUDE /I..\..\3RDPARTY\STB\INCLUDE /I..\..\3RDPARTY\PTHREADS\INCLUDE /I"..\..\..\..\..\PROGRAM FILES\NVIDIA GPU COMPUTING TOOLKIT\CUDA\V10.1\INCLUDE" /I"..\..\..\..\..\PROGRAM FILES\NVIDIA GPU COMPUTING TOOLKIT\CUDA\V10.1\INCLUDE" /I"C:\PROGRAM FILES\NVIDIA GPU COMPUTING TOOLKIT\CUDNN\INCLUDE" /I"C:\PROGRAM FILES\NVIDIA GPU COMPUTING TOOLKIT\CUDNN\INCLUDE" /Zi /nologo /W3 /WX- /sdl /O1 /Oi /GL /D CUDNN /D CUDNN_HALF /D GPU /D LIB_EXPORTS /D _TIMESPEC_DEFINED /D _SCL_SECURE_NO_WARNINGS /D _CRT_SECURE_NO_WARNINGS /D WIN32 /D NDEBUG /D _CONSOLE /D _LIB /D _WINDLL /D _MBCS /Gm- /EHsc /MD /GS /Gy /fp:precise /Zc:wchar_t /Zc:forScope /Zc:inline /Fo"X64\DLL_RELEASE\\" /Fd"X64\DLL_RELEASE\VC140.PDB" /Gd /TC C:\GITHUB\HEAD-RECOGNITION\DARKNET\SRC\GEMM.C
^C:\GITHUB\HEAD-RECOGNITION\DARKNET\SRC\GETOPT.C
/c /I\INCLUDE /IC:\OPENCV_3.0\OPENCV\BUILD\INCLUDE /I..\..\INCLUDE /I..\..\3RDPARTY\STB\INCLUDE /I..\..\3RDPARTY\PTHREADS\INCLUDE /I"..\..\..\..\..\PROGRAM FILES\NVIDIA GPU COMPUTING TOOLKIT\CUDA\V10.1\INCLUDE" /I"..\..\..\..\..\PROGRAM FILES\NVIDIA GPU COMPUTING TOOLKIT\CUDA\V10.1\INCLUDE" /I"C:\PROGRAM FILES\NVIDIA GPU COMPUTING TOOLKIT\CUDNN\INCLUDE" /I"C:\PROGRAM FILES\NVIDIA GPU COMPUTING TOOLKIT\CUDNN\INCLUDE" /Zi /nologo /W3 /WX- /sdl /O1 /Oi /GL /D CUDNN /D CUDNN_HALF /D GPU /D LIB_EXPORTS /D _TIMESPEC_DEFINED /D _SCL_SECURE_NO_WARNINGS /D _CRT_SECURE_NO_WARNINGS /D WIN32 /D NDEBUG /D _CONSOLE /D _LIB /D _WINDLL /D _MBCS /Gm- /EHsc /MD /GS /Gy /fp:precise /Zc:wchar_t /Zc:forScope /Zc:inline /Fo"X64\DLL_RELEASE\\" /Fd"X64\DLL_RELEASE\VC140.PDB" /Gd /TC C:\GITHUB\HEAD-RECOGNITION\DARKNET\SRC\GETOPT.C
^C:\GITHUB\HEAD-RECOGNITION\DARKNET\SRC\GETTIMEOFDAY.C
/c /I\INCLUDE /IC:\OPENCV_3.0\OPENCV\BUILD\INCLUDE /I..\..\INCLUDE /I..\..\3RDPARTY\STB\INCLUDE /I..\..\3RDPARTY\PTHREADS\INCLUDE /I"..\..\..\..\..\PROGRAM FILES\NVIDIA GPU COMPUTING TOOLKIT\CUDA\V10.1\INCLUDE" /I"..\..\..\..\..\PROGRAM FILES\NVIDIA GPU COMPUTING TOOLKIT\CUDA\V10.1\INCLUDE" /I"C:\PROGRAM FILES\NVIDIA GPU COMPUTING TOOLKIT\CUDNN\INCLUDE" /I"C:\PROGRAM FILES\NVIDIA GPU COMPUTING TOOLKIT\CUDNN\INCLUDE" /Zi /nologo /W3 /WX- /sdl /O1 /Oi /GL /D CUDNN /D CUDNN_HALF /D GPU /D LIB_EXPORTS /D _TIMESPEC_DEFINED /D _SCL_SECURE_NO_WARNINGS /D _CRT_SECURE_NO_WARNINGS /D WIN32 /D NDEBUG /D _CONSOLE /D _LIB /D _WINDLL /D _MBCS /Gm- /EHsc /MD /GS /Gy /fp:precise /Zc:wchar_t /Zc:forScope /Zc:inline /Fo"X64\DLL_RELEASE\\" /Fd"X64\DLL_RELEASE\VC140.PDB" /Gd /TC C:\GITHUB\HEAD-RECOGNITION\DARKNET\SRC\GETTIMEOFDAY.C
^C:\GITHUB\HEAD-RECOGNITION\DARKNET\SRC\GO.C
/c /I\INCLUDE /IC:\OPENCV_3.0\OPENCV\BUILD\INCLUDE /I..\..\INCLUDE /I..\..\3RDPARTY\STB\INCLUDE /I..\..\3RDPARTY\PTHREADS\INCLUDE /I"..\..\..\..\..\PROGRAM FILES\NVIDIA GPU COMPUTING TOOLKIT\CUDA\V10.1\INCLUDE" /I"..\..\..\..\..\PROGRAM FILES\NVIDIA GPU COMPUTING TOOLKIT\CUDA\V10.1\INCLUDE" /I"C:\PROGRAM FILES\NVIDIA GPU COMPUTING TOOLKIT\CUDNN\INCLUDE" /I"C:\PROGRAM FILES\NVIDIA GPU COMPUTING TOOLKIT\CUDNN\INCLUDE" /Zi /nologo /W3 /WX- /sdl /O1 /Oi /GL /D CUDNN /D CUDNN_HALF /D GPU /D LIB_EXPORTS /D _TIMESPEC_DEFINED /D _SCL_SECURE_NO_WARNINGS /D _CRT_SECURE_NO_WARNINGS /D WIN32 /D NDEBUG /D _CONSOLE /D _LIB /D _WINDLL /D _MBCS /Gm- /EHsc /MD /GS /Gy /fp:precise /Zc:wchar_t /Zc:forScope /Zc:inline /Fo"X64\DLL_RELEASE\\" /Fd"X64\DLL_RELEASE\VC140.PDB" /Gd /TC C:\GITHUB\HEAD-RECOGNITION\DARKNET\SRC\GO.C
^C:\GITHUB\HEAD-RECOGNITION\DARKNET\SRC\GRU_LAYER.C
/c /I\INCLUDE /IC:\OPENCV_3.0\OPENCV\BUILD\INCLUDE /I..\..\INCLUDE /I..\..\3RDPARTY\STB\INCLUDE /I..\..\3RDPARTY\PTHREADS\INCLUDE /I"..\..\..\..\..\PROGRAM FILES\NVIDIA GPU COMPUTING TOOLKIT\CUDA\V10.1\INCLUDE" /I"..\..\..\..\..\PROGRAM FILES\NVIDIA GPU COMPUTING TOOLKIT\CUDA\V10.1\INCLUDE" /I"C:\PROGRAM FILES\NVIDIA GPU COMPUTING TOOLKIT\CUDNN\INCLUDE" /I"C:\PROGRAM FILES\NVIDIA GPU COMPUTING TOOLKIT\CUDNN\INCLUDE" /Zi /nologo /W3 /WX- /sdl /O1 /Oi /GL /D CUDNN /D CUDNN_HALF /D GPU /D LIB_EXPORTS /D _TIMESPEC_DEFINED /D _SCL_SECURE_NO_WARNINGS /D _CRT_SECURE_NO_WARNINGS /D WIN32 /D NDEBUG /D _CONSOLE /D _LIB /D _WINDLL /D _MBCS /Gm- /EHsc /MD /GS /Gy /fp:precise /Zc:wchar_t /Zc:forScope /Zc:inline /Fo"X64\DLL_RELEASE\\" /Fd"X64\DLL_RELEASE\VC140.PDB" /Gd /TC C:\GITHUB\HEAD-RECOGNITION\DARKNET\SRC\GRU_LAYER.C
^C:\GITHUB\HEAD-RECOGNITION\DARKNET\SRC\IM2COL.C
/c /I\INCLUDE /IC:\OPENCV_3.0\OPENCV\BUILD\INCLUDE /I..\..\INCLUDE /I..\..\3RDPARTY\STB\INCLUDE /I..\..\3RDPARTY\PTHREADS\INCLUDE /I"..\..\..\..\..\PROGRAM FILES\NVIDIA GPU COMPUTING TOOLKIT\CUDA\V10.1\INCLUDE" /I"..\..\..\..\..\PROGRAM FILES\NVIDIA GPU COMPUTING TOOLKIT\CUDA\V10.1\INCLUDE" /I"C:\PROGRAM FILES\NVIDIA GPU COMPUTING TOOLKIT\CUDNN\INCLUDE" /I"C:\PROGRAM FILES\NVIDIA GPU COMPUTING TOOLKIT\CUDNN\INCLUDE" /Zi /nologo /W3 /WX- /sdl /O1 /Oi /GL /D CUDNN /D CUDNN_HALF /D GPU /D LIB_EXPORTS /D _TIMESPEC_DEFINED /D _SCL_SECURE_NO_WARNINGS /D _CRT_SECURE_NO_WARNINGS /D WIN32 /D NDEBUG /D _CONSOLE /D _LIB /D _WINDLL /D _MBCS /Gm- /EHsc /MD /GS /Gy /fp:precise /Zc:wchar_t /Zc:forScope /Zc:inline /Fo"X64\DLL_RELEASE\\" /Fd"X64\DLL_RELEASE\VC140.PDB" /Gd /TC C:\GITHUB\HEAD-RECOGNITION\DARKNET\SRC\IM2COL.C
^C:\GITHUB\HEAD-RECOGNITION\DARKNET\SRC\LAYER.C
/c /I\INCLUDE /IC:\OPENCV_3.0\OPENCV\BUILD\INCLUDE /I..\..\INCLUDE /I..\..\3RDPARTY\STB\INCLUDE /I..\..\3RDPARTY\PTHREADS\INCLUDE /I"..\..\..\..\..\PROGRAM FILES\NVIDIA GPU COMPUTING TOOLKIT\CUDA\V10.1\INCLUDE" /I"..\..\..\..\..\PROGRAM FILES\NVIDIA GPU COMPUTING TOOLKIT\CUDA\V10.1\INCLUDE" /I"C:\PROGRAM FILES\NVIDIA GPU COMPUTING TOOLKIT\CUDNN\INCLUDE" /I"C:\PROGRAM FILES\NVIDIA GPU COMPUTING TOOLKIT\CUDNN\INCLUDE" /Zi /nologo /W3 /WX- /sdl /O1 /Oi /GL /D CUDNN /D CUDNN_HALF /D GPU /D LIB_EXPORTS /D _TIMESPEC_DEFINED /D _SCL_SECURE_NO_WARNINGS /D _CRT_SECURE_NO_WARNINGS /D WIN32 /D NDEBUG /D _CONSOLE /D _LIB /D _WINDLL /D _MBCS /Gm- /EHsc /MD /GS /Gy /fp:precise /Zc:wchar_t /Zc:forScope /Zc:inline /Fo"X64\DLL_RELEASE\\" /Fd"X64\DLL_RELEASE\VC140.PDB" /Gd /TC C:\GITHUB\HEAD-RECOGNITION\DARKNET\SRC\LAYER.C
^C:\GITHUB\HEAD-RECOGNITION\DARKNET\SRC\LIST.C
/c /I\INCLUDE /IC:\OPENCV_3.0\OPENCV\BUILD\INCLUDE /I..\..\INCLUDE /I..\..\3RDPARTY\STB\INCLUDE /I..\..\3RDPARTY\PTHREADS\INCLUDE /I"..\..\..\..\..\PROGRAM FILES\NVIDIA GPU COMPUTING TOOLKIT\CUDA\V10.1\INCLUDE" /I"..\..\..\..\..\PROGRAM FILES\NVIDIA GPU COMPUTING TOOLKIT\CUDA\V10.1\INCLUDE" /I"C:\PROGRAM FILES\NVIDIA GPU COMPUTING TOOLKIT\CUDNN\INCLUDE" /I"C:\PROGRAM FILES\NVIDIA GPU COMPUTING TOOLKIT\CUDNN\INCLUDE" /Zi /nologo /W3 /WX- /sdl /O1 /Oi /GL /D CUDNN /D CUDNN_HALF /D GPU /D LIB_EXPORTS /D _TIMESPEC_DEFINED /D _SCL_SECURE_NO_WARNINGS /D _CRT_SECURE_NO_WARNINGS /D WIN32 /D NDEBUG /D _CONSOLE /D _LIB /D _WINDLL /D _MBCS /Gm- /EHsc /MD /GS /Gy /fp:precise /Zc:wchar_t /Zc:forScope /Zc:inline /Fo"X64\DLL_RELEASE\\" /Fd"X64\DLL_RELEASE\VC140.PDB" /Gd /TC C:\GITHUB\HEAD-RECOGNITION\DARKNET\SRC\LIST.C
^C:\GITHUB\HEAD-RECOGNITION\DARKNET\SRC\LOCAL_LAYER.C
/c /I\INCLUDE /IC:\OPENCV_3.0\OPENCV\BUILD\INCLUDE /I..\..\INCLUDE /I..\..\3RDPARTY\STB\INCLUDE /I..\..\3RDPARTY\PTHREADS\INCLUDE /I"..\..\..\..\..\PROGRAM FILES\NVIDIA GPU COMPUTING TOOLKIT\CUDA\V10.1\INCLUDE" /I"..\..\..\..\..\PROGRAM FILES\NVIDIA GPU COMPUTING TOOLKIT\CUDA\V10.1\INCLUDE" /I"C:\PROGRAM FILES\NVIDIA GPU COMPUTING TOOLKIT\CUDNN\INCLUDE" /I"C:\PROGRAM FILES\NVIDIA GPU COMPUTING TOOLKIT\CUDNN\INCLUDE" /Zi /nologo /W3 /WX- /sdl /O1 /Oi /GL /D CUDNN /D CUDNN_HALF /D GPU /D LIB_EXPORTS /D _TIMESPEC_DEFINED /D _SCL_SECURE_NO_WARNINGS /D _CRT_SECURE_NO_WARNINGS /D WIN32 /D NDEBUG /D _CONSOLE /D _LIB /D _WINDLL /D _MBCS /Gm- /EHsc /MD /GS /Gy /fp:precise /Zc:wchar_t /Zc:forScope /Zc:inline /Fo"X64\DLL_RELEASE\\" /Fd"X64\DLL_RELEASE\VC140.PDB" /Gd /TC C:\GITHUB\HEAD-RECOGNITION\DARKNET\SRC\LOCAL_LAYER.C
^C:\GITHUB\HEAD-RECOGNITION\DARKNET\SRC\LSTM_LAYER.C
/c /I\INCLUDE /IC:\OPENCV_3.0\OPENCV\BUILD\INCLUDE /I..\..\INCLUDE /I..\..\3RDPARTY\STB\INCLUDE /I..\..\3RDPARTY\PTHREADS\INCLUDE /I"..\..\..\..\..\PROGRAM FILES\NVIDIA GPU COMPUTING TOOLKIT\CUDA\V10.1\INCLUDE" /I"..\..\..\..\..\PROGRAM FILES\NVIDIA GPU COMPUTING TOOLKIT\CUDA\V10.1\INCLUDE" /I"C:\PROGRAM FILES\NVIDIA GPU COMPUTING TOOLKIT\CUDNN\INCLUDE" /I"C:\PROGRAM FILES\NVIDIA GPU COMPUTING TOOLKIT\CUDNN\INCLUDE" /Zi /nologo /W3 /WX- /sdl /O1 /Oi /GL /D CUDNN /D CUDNN_HALF /D GPU /D LIB_EXPORTS /D _TIMESPEC_DEFINED /D _SCL_SECURE_NO_WARNINGS /D _CRT_SECURE_NO_WARNINGS /D WIN32 /D NDEBUG /D _CONSOLE /D _LIB /D _WINDLL /D _MBCS /Gm- /EHsc /MD /GS /Gy /fp:precise /Zc:wchar_t /Zc:forScope /Zc:inline /Fo"X64\DLL_RELEASE\\" /Fd"X64\DLL_RELEASE\VC140.PDB" /Gd /TC C:\GITHUB\HEAD-RECOGNITION\DARKNET\SRC\LSTM_LAYER.C
^C:\GITHUB\HEAD-RECOGNITION\DARKNET\SRC\MATRIX.C
/c /I\INCLUDE /IC:\OPENCV_3.0\OPENCV\BUILD\INCLUDE /I..\..\INCLUDE /I..\..\3RDPARTY\STB\INCLUDE /I..\..\3RDPARTY\PTHREADS\INCLUDE /I"..\..\..\..\..\PROGRAM FILES\NVIDIA GPU COMPUTING TOOLKIT\CUDA\V10.1\INCLUDE" /I"..\..\..\..\..\PROGRAM FILES\NVIDIA GPU COMPUTING TOOLKIT\CUDA\V10.1\INCLUDE" /I"C:\PROGRAM FILES\NVIDIA GPU COMPUTING TOOLKIT\CUDNN\INCLUDE" /I"C:\PROGRAM FILES\NVIDIA GPU COMPUTING TOOLKIT\CUDNN\INCLUDE" /Zi /nologo /W3 /WX- /sdl /O1 /Oi /GL /D CUDNN /D CUDNN_HALF /D GPU /D LIB_EXPORTS /D _TIMESPEC_DEFINED /D _SCL_SECURE_NO_WARNINGS /D _CRT_SECURE_NO_WARNINGS /D WIN32 /D NDEBUG /D _CONSOLE /D _LIB /D _WINDLL /D _MBCS /Gm- /EHsc /MD /GS /Gy /fp:precise /Zc:wchar_t /Zc:forScope /Zc:inline /Fo"X64\DLL_RELEASE\\" /Fd"X64\DLL_RELEASE\VC140.PDB" /Gd /TC C:\GITHUB\HEAD-RECOGNITION\DARKNET\SRC\MATRIX.C
^C:\GITHUB\HEAD-RECOGNITION\DARKNET\SRC\MAXPOOL_LAYER.C
/c /I\INCLUDE /IC:\OPENCV_3.0\OPENCV\BUILD\INCLUDE /I..\..\INCLUDE /I..\..\3RDPARTY\STB\INCLUDE /I..\..\3RDPARTY\PTHREADS\INCLUDE /I"..\..\..\..\..\PROGRAM FILES\NVIDIA GPU COMPUTING TOOLKIT\CUDA\V10.1\INCLUDE" /I"..\..\..\..\..\PROGRAM FILES\NVIDIA GPU COMPUTING TOOLKIT\CUDA\V10.1\INCLUDE" /I"C:\PROGRAM FILES\NVIDIA GPU COMPUTING TOOLKIT\CUDNN\INCLUDE" /I"C:\PROGRAM FILES\NVIDIA GPU COMPUTING TOOLKIT\CUDNN\INCLUDE" /Zi /nologo /W3 /WX- /sdl /O1 /Oi /GL /D CUDNN /D CUDNN_HALF /D GPU /D LIB_EXPORTS /D _TIMESPEC_DEFINED /D _SCL_SECURE_NO_WARNINGS /D _CRT_SECURE_NO_WARNINGS /D WIN32 /D NDEBUG /D _CONSOLE /D _LIB /D _WINDLL /D _MBCS /Gm- /EHsc /MD /GS /Gy /fp:precise /Zc:wchar_t /Zc:forScope /Zc:inline /Fo"X64\DLL_RELEASE\\" /Fd"X64\DLL_RELEASE\VC140.PDB" /Gd /TC C:\GITHUB\HEAD-RECOGNITION\DARKNET\SRC\MAXPOOL_LAYER.C
^C:\GITHUB\HEAD-RECOGNITION\DARKNET\SRC\NETWORK.C
/c /I\INCLUDE /IC:\OPENCV_3.0\OPENCV\BUILD\INCLUDE /I..\..\INCLUDE /I..\..\3RDPARTY\STB\INCLUDE /I..\..\3RDPARTY\PTHREADS\INCLUDE /I"..\..\..\..\..\PROGRAM FILES\NVIDIA GPU COMPUTING TOOLKIT\CUDA\V10.1\INCLUDE" /I"..\..\..\..\..\PROGRAM FILES\NVIDIA GPU COMPUTING TOOLKIT\CUDA\V10.1\INCLUDE" /I"C:\PROGRAM FILES\NVIDIA GPU COMPUTING TOOLKIT\CUDNN\INCLUDE" /I"C:\PROGRAM FILES\NVIDIA GPU COMPUTING TOOLKIT\CUDNN\INCLUDE" /Zi /nologo /W3 /WX- /sdl /O1 /Oi /GL /D CUDNN /D CUDNN_HALF /D GPU /D LIB_EXPORTS /D _TIMESPEC_DEFINED /D _SCL_SECURE_NO_WARNINGS /D _CRT_SECURE_NO_WARNINGS /D WIN32 /D NDEBUG /D _CONSOLE /D _LIB /D _WINDLL /D _MBCS /Gm- /EHsc /MD /GS /Gy /fp:precise /Zc:wchar_t /Zc:forScope /Zc:inline /Fo"X64\DLL_RELEASE\\" /Fd"X64\DLL_RELEASE\VC140.PDB" /Gd /TC C:\GITHUB\HEAD-RECOGNITION\DARKNET\SRC\NETWORK.C
^C:\GITHUB\HEAD-RECOGNITION\DARKNET\SRC\NIGHTMARE.C
/c /I\INCLUDE /IC:\OPENCV_3.0\OPENCV\BUILD\INCLUDE /I..\..\INCLUDE /I..\..\3RDPARTY\STB\INCLUDE /I..\..\3RDPARTY\PTHREADS\INCLUDE /I"..\..\..\..\..\PROGRAM FILES\NVIDIA GPU COMPUTING TOOLKIT\CUDA\V10.1\INCLUDE" /I"..\..\..\..\..\PROGRAM FILES\NVIDIA GPU COMPUTING TOOLKIT\CUDA\V10.1\INCLUDE" /I"C:\PROGRAM FILES\NVIDIA GPU COMPUTING TOOLKIT\CUDNN\INCLUDE" /I"C:\PROGRAM FILES\NVIDIA GPU COMPUTING TOOLKIT\CUDNN\INCLUDE" /Zi /nologo /W3 /WX- /sdl /O1 /Oi /GL /D CUDNN /D CUDNN_HALF /D GPU /D LIB_EXPORTS /D _TIMESPEC_DEFINED /D _SCL_SECURE_NO_WARNINGS /D _CRT_SECURE_NO_WARNINGS /D WIN32 /D NDEBUG /D _CONSOLE /D _LIB /D _WINDLL /D _MBCS /Gm- /EHsc /MD /GS /Gy /fp:precise /Zc:wchar_t /Zc:forScope /Zc:inline /Fo"X64\DLL_RELEASE\\" /Fd"X64\DLL_RELEASE\VC140.PDB" /Gd /TC C:\GITHUB\HEAD-RECOGNITION\DARKNET\SRC\NIGHTMARE.C
^C:\GITHUB\HEAD-RECOGNITION\DARKNET\SRC\NORMALIZATION_LAYER.C
/c /I\INCLUDE /IC:\OPENCV_3.0\OPENCV\BUILD\INCLUDE /I..\..\INCLUDE /I..\..\3RDPARTY\STB\INCLUDE /I..\..\3RDPARTY\PTHREADS\INCLUDE /I"..\..\..\..\..\PROGRAM FILES\NVIDIA GPU COMPUTING TOOLKIT\CUDA\V10.1\INCLUDE" /I"..\..\..\..\..\PROGRAM FILES\NVIDIA GPU COMPUTING TOOLKIT\CUDA\V10.1\INCLUDE" /I"C:\PROGRAM FILES\NVIDIA GPU COMPUTING TOOLKIT\CUDNN\INCLUDE" /I"C:\PROGRAM FILES\NVIDIA GPU COMPUTING TOOLKIT\CUDNN\INCLUDE" /Zi /nologo /W3 /WX- /sdl /O1 /Oi /GL /D CUDNN /D CUDNN_HALF /D GPU /D LIB_EXPORTS /D _TIMESPEC_DEFINED /D _SCL_SECURE_NO_WARNINGS /D _CRT_SECURE_NO_WARNINGS /D WIN32 /D NDEBUG /D _CONSOLE /D _LIB /D _WINDLL /D _MBCS /Gm- /EHsc /MD /GS /Gy /fp:precise /Zc:wchar_t /Zc:forScope /Zc:inline /Fo"X64\DLL_RELEASE\\" /Fd"X64\DLL_RELEASE\VC140.PDB" /Gd /TC C:\GITHUB\HEAD-RECOGNITION\DARKNET\SRC\NORMALIZATION_LAYER.C
^C:\GITHUB\HEAD-RECOGNITION\DARKNET\SRC\OPTION_LIST.C
/c /I\INCLUDE /IC:\OPENCV_3.0\OPENCV\BUILD\INCLUDE /I..\..\INCLUDE /I..\..\3RDPARTY\STB\INCLUDE /I..\..\3RDPARTY\PTHREADS\INCLUDE /I"..\..\..\..\..\PROGRAM FILES\NVIDIA GPU COMPUTING TOOLKIT\CUDA\V10.1\INCLUDE" /I"..\..\..\..\..\PROGRAM FILES\NVIDIA GPU COMPUTING TOOLKIT\CUDA\V10.1\INCLUDE" /I"C:\PROGRAM FILES\NVIDIA GPU COMPUTING TOOLKIT\CUDNN\INCLUDE" /I"C:\PROGRAM FILES\NVIDIA GPU COMPUTING TOOLKIT\CUDNN\INCLUDE" /Zi /nologo /W3 /WX- /sdl /O1 /Oi /GL /D CUDNN /D CUDNN_HALF /D GPU /D LIB_EXPORTS /D _TIMESPEC_DEFINED /D _SCL_SECURE_NO_WARNINGS /D _CRT_SECURE_NO_WARNINGS /D WIN32 /D NDEBUG /D _CONSOLE /D _LIB /D _WINDLL /D _MBCS /Gm- /EHsc /MD /GS /Gy /fp:precise /Zc:wchar_t /Zc:forScope /Zc:inline /Fo"X64\DLL_RELEASE\\" /Fd"X64\DLL_RELEASE\VC140.PDB" /Gd /TC C:\GITHUB\HEAD-RECOGNITION\DARKNET\SRC\OPTION_LIST.C
^C:\GITHUB\HEAD-RECOGNITION\DARKNET\SRC\PARSER.C
/c /I\INCLUDE /IC:\OPENCV_3.0\OPENCV\BUILD\INCLUDE /I..\..\INCLUDE /I..\..\3RDPARTY\STB\INCLUDE /I..\..\3RDPARTY\PTHREADS\INCLUDE /I"..\..\..\..\..\PROGRAM FILES\NVIDIA GPU COMPUTING TOOLKIT\CUDA\V10.1\INCLUDE" /I"..\..\..\..\..\PROGRAM FILES\NVIDIA GPU COMPUTING TOOLKIT\CUDA\V10.1\INCLUDE" /I"C:\PROGRAM FILES\NVIDIA GPU COMPUTING TOOLKIT\CUDNN\INCLUDE" /I"C:\PROGRAM FILES\NVIDIA GPU COMPUTING TOOLKIT\CUDNN\INCLUDE" /Zi /nologo /W3 /WX- /sdl /O1 /Oi /GL /D CUDNN /D CUDNN_HALF /D GPU /D LIB_EXPORTS /D _TIMESPEC_DEFINED /D _SCL_SECURE_NO_WARNINGS /D _CRT_SECURE_NO_WARNINGS /D WIN32 /D NDEBUG /D _CONSOLE /D _LIB /D _WINDLL /D _MBCS /Gm- /EHsc /MD /GS /Gy /fp:precise /Zc:wchar_t /Zc:forScope /Zc:inline /Fo"X64\DLL_RELEASE\\" /Fd"X64\DLL_RELEASE\VC140.PDB" /Gd /TC C:\GITHUB\HEAD-RECOGNITION\DARKNET\SRC\PARSER.C
^C:\GITHUB\HEAD-RECOGNITION\DARKNET\SRC\REGION_LAYER.C
/c /I\INCLUDE /IC:\OPENCV_3.0\OPENCV\BUILD\INCLUDE /I..\..\INCLUDE /I..\..\3RDPARTY\STB\INCLUDE /I..\..\3RDPARTY\PTHREADS\INCLUDE /I"..\..\..\..\..\PROGRAM FILES\NVIDIA GPU COMPUTING TOOLKIT\CUDA\V10.1\INCLUDE" /I"..\..\..\..\..\PROGRAM FILES\NVIDIA GPU COMPUTING TOOLKIT\CUDA\V10.1\INCLUDE" /I"C:\PROGRAM FILES\NVIDIA GPU COMPUTING TOOLKIT\CUDNN\INCLUDE" /I"C:\PROGRAM FILES\NVIDIA GPU COMPUTING TOOLKIT\CUDNN\INCLUDE" /Zi /nologo /W3 /WX- /sdl /O1 /Oi /GL /D CUDNN /D CUDNN_HALF /D GPU /D LIB_EXPORTS /D _TIMESPEC_DEFINED /D _SCL_SECURE_NO_WARNINGS /D _CRT_SECURE_NO_WARNINGS /D WIN32 /D NDEBUG /D _CONSOLE /D _LIB /D _WINDLL /D _MBCS /Gm- /EHsc /MD /GS /Gy /fp:precise /Zc:wchar_t /Zc:forScope /Zc:inline /Fo"X64\DLL_RELEASE\\" /Fd"X64\DLL_RELEASE\VC140.PDB" /Gd /TC C:\GITHUB\HEAD-RECOGNITION\DARKNET\SRC\REGION_LAYER.C
^C:\GITHUB\HEAD-RECOGNITION\DARKNET\SRC\REORG_LAYER.C
/c /I\INCLUDE /IC:\OPENCV_3.0\OPENCV\BUILD\INCLUDE /I..\..\INCLUDE /I..\..\3RDPARTY\STB\INCLUDE /I..\..\3RDPARTY\PTHREADS\INCLUDE /I"..\..\..\..\..\PROGRAM FILES\NVIDIA GPU COMPUTING TOOLKIT\CUDA\V10.1\INCLUDE" /I"..\..\..\..\..\PROGRAM FILES\NVIDIA GPU COMPUTING TOOLKIT\CUDA\V10.1\INCLUDE" /I"C:\PROGRAM FILES\NVIDIA GPU COMPUTING TOOLKIT\CUDNN\INCLUDE" /I"C:\PROGRAM FILES\NVIDIA GPU COMPUTING TOOLKIT\CUDNN\INCLUDE" /Zi /nologo /W3 /WX- /sdl /O1 /Oi /GL /D CUDNN /D CUDNN_HALF /D GPU /D LIB_EXPORTS /D _TIMESPEC_DEFINED /D _SCL_SECURE_NO_WARNINGS /D _CRT_SECURE_NO_WARNINGS /D WIN32 /D NDEBUG /D _CONSOLE /D _LIB /D _WINDLL /D _MBCS /Gm- /EHsc /MD /GS /Gy /fp:precise /Zc:wchar_t /Zc:forScope /Zc:inline /Fo"X64\DLL_RELEASE\\" /Fd"X64\DLL_RELEASE\VC140.PDB" /Gd /TC C:\GITHUB\HEAD-RECOGNITION\DARKNET\SRC\REORG_LAYER.C
^C:\GITHUB\HEAD-RECOGNITION\DARKNET\SRC\REORG_OLD_LAYER.C
/c /I\INCLUDE /IC:\OPENCV_3.0\OPENCV\BUILD\INCLUDE /I..\..\INCLUDE /I..\..\3RDPARTY\STB\INCLUDE /I..\..\3RDPARTY\PTHREADS\INCLUDE /I"..\..\..\..\..\PROGRAM FILES\NVIDIA GPU COMPUTING TOOLKIT\CUDA\V10.1\INCLUDE" /I"..\..\..\..\..\PROGRAM FILES\NVIDIA GPU COMPUTING TOOLKIT\CUDA\V10.1\INCLUDE" /I"C:\PROGRAM FILES\NVIDIA GPU COMPUTING TOOLKIT\CUDNN\INCLUDE" /I"C:\PROGRAM FILES\NVIDIA GPU COMPUTING TOOLKIT\CUDNN\INCLUDE" /Zi /nologo /W3 /WX- /sdl /O1 /Oi /GL /D CUDNN /D CUDNN_HALF /D GPU /D LIB_EXPORTS /D _TIMESPEC_DEFINED /D _SCL_SECURE_NO_WARNINGS /D _CRT_SECURE_NO_WARNINGS /D WIN32 /D NDEBUG /D _CONSOLE /D _LIB /D _WINDLL /D _MBCS /Gm- /EHsc /MD /GS /Gy /fp:precise /Zc:wchar_t /Zc:forScope /Zc:inline /Fo"X64\DLL_RELEASE\\" /Fd"X64\DLL_RELEASE\VC140.PDB" /Gd /TC C:\GITHUB\HEAD-RECOGNITION\DARKNET\SRC\REORG_OLD_LAYER.C
^C:\GITHUB\HEAD-RECOGNITION\DARKNET\SRC\RNN.C
/c /I\INCLUDE /IC:\OPENCV_3.0\OPENCV\BUILD\INCLUDE /I..\..\INCLUDE /I..\..\3RDPARTY\STB\INCLUDE /I..\..\3RDPARTY\PTHREADS\INCLUDE /I"..\..\..\..\..\PROGRAM FILES\NVIDIA GPU COMPUTING TOOLKIT\CUDA\V10.1\INCLUDE" /I"..\..\..\..\..\PROGRAM FILES\NVIDIA GPU COMPUTING TOOLKIT\CUDA\V10.1\INCLUDE" /I"C:\PROGRAM FILES\NVIDIA GPU COMPUTING TOOLKIT\CUDNN\INCLUDE" /I"C:\PROGRAM FILES\NVIDIA GPU COMPUTING TOOLKIT\CUDNN\INCLUDE" /Zi /nologo /W3 /WX- /sdl /O1 /Oi /GL /D CUDNN /D CUDNN_HALF /D GPU /D LIB_EXPORTS /D _TIMESPEC_DEFINED /D _SCL_SECURE_NO_WARNINGS /D _CRT_SECURE_NO_WARNINGS /D WIN32 /D NDEBUG /D _CONSOLE /D _LIB /D _WINDLL /D _MBCS /Gm- /EHsc /MD /GS /Gy /fp:precise /Zc:wchar_t /Zc:forScope /Zc:inline /Fo"X64\DLL_RELEASE\\" /Fd"X64\DLL_RELEASE\VC140.PDB" /Gd /TC C:\GITHUB\HEAD-RECOGNITION\DARKNET\SRC\RNN.C
^C:\GITHUB\HEAD-RECOGNITION\DARKNET\SRC\RNN_LAYER.C
/c /I\INCLUDE /IC:\OPENCV_3.0\OPENCV\BUILD\INCLUDE /I..\..\INCLUDE /I..\..\3RDPARTY\STB\INCLUDE /I..\..\3RDPARTY\PTHREADS\INCLUDE /I"..\..\..\..\..\PROGRAM FILES\NVIDIA GPU COMPUTING TOOLKIT\CUDA\V10.1\INCLUDE" /I"..\..\..\..\..\PROGRAM FILES\NVIDIA GPU COMPUTING TOOLKIT\CUDA\V10.1\INCLUDE" /I"C:\PROGRAM FILES\NVIDIA GPU COMPUTING TOOLKIT\CUDNN\INCLUDE" /I"C:\PROGRAM FILES\NVIDIA GPU COMPUTING TOOLKIT\CUDNN\INCLUDE" /Zi /nologo /W3 /WX- /sdl /O1 /Oi /GL /D CUDNN /D CUDNN_HALF /D GPU /D LIB_EXPORTS /D _TIMESPEC_DEFINED /D _SCL_SECURE_NO_WARNINGS /D _CRT_SECURE_NO_WARNINGS /D WIN32 /D NDEBUG /D _CONSOLE /D _LIB /D _WINDLL /D _MBCS /Gm- /EHsc /MD /GS /Gy /fp:precise /Zc:wchar_t /Zc:forScope /Zc:inline /Fo"X64\DLL_RELEASE\\" /Fd"X64\DLL_RELEASE\VC140.PDB" /Gd /TC C:\GITHUB\HEAD-RECOGNITION\DARKNET\SRC\RNN_LAYER.C
^C:\GITHUB\HEAD-RECOGNITION\DARKNET\SRC\RNN_VID.C
/c /I\INCLUDE /IC:\OPENCV_3.0\OPENCV\BUILD\INCLUDE /I..\..\INCLUDE /I..\..\3RDPARTY\STB\INCLUDE /I..\..\3RDPARTY\PTHREADS\INCLUDE /I"..\..\..\..\..\PROGRAM FILES\NVIDIA GPU COMPUTING TOOLKIT\CUDA\V10.1\INCLUDE" /I"..\..\..\..\..\PROGRAM FILES\NVIDIA GPU COMPUTING TOOLKIT\CUDA\V10.1\INCLUDE" /I"C:\PROGRAM FILES\NVIDIA GPU COMPUTING TOOLKIT\CUDNN\INCLUDE" /I"C:\PROGRAM FILES\NVIDIA GPU COMPUTING TOOLKIT\CUDNN\INCLUDE" /Zi /nologo /W3 /WX- /sdl /O1 /Oi /GL /D CUDNN /D CUDNN_HALF /D GPU /D LIB_EXPORTS /D _TIMESPEC_DEFINED /D _SCL_SECURE_NO_WARNINGS /D _CRT_SECURE_NO_WARNINGS /D WIN32 /D NDEBUG /D _CONSOLE /D _LIB /D _WINDLL /D _MBCS /Gm- /EHsc /MD /GS /Gy /fp:precise /Zc:wchar_t /Zc:forScope /Zc:inline /Fo"X64\DLL_RELEASE\\" /Fd"X64\DLL_RELEASE\VC140.PDB" /Gd /TC C:\GITHUB\HEAD-RECOGNITION\DARKNET\SRC\RNN_VID.C
^C:\GITHUB\HEAD-RECOGNITION\DARKNET\SRC\ROUTE_LAYER.C
/c /I\INCLUDE /IC:\OPENCV_3.0\OPENCV\BUILD\INCLUDE /I..\..\INCLUDE /I..\..\3RDPARTY\STB\INCLUDE /I..\..\3RDPARTY\PTHREADS\INCLUDE /I"..\..\..\..\..\PROGRAM FILES\NVIDIA GPU COMPUTING TOOLKIT\CUDA\V10.1\INCLUDE" /I"..\..\..\..\..\PROGRAM FILES\NVIDIA GPU COMPUTING TOOLKIT\CUDA\V10.1\INCLUDE" /I"C:\PROGRAM FILES\NVIDIA GPU COMPUTING TOOLKIT\CUDNN\INCLUDE" /I"C:\PROGRAM FILES\NVIDIA GPU COMPUTING TOOLKIT\CUDNN\INCLUDE" /Zi /nologo /W3 /WX- /sdl /O1 /Oi /GL /D CUDNN /D CUDNN_HALF /D GPU /D LIB_EXPORTS /D _TIMESPEC_DEFINED /D _SCL_SECURE_NO_WARNINGS /D _CRT_SECURE_NO_WARNINGS /D WIN32 /D NDEBUG /D _CONSOLE /D _LIB /D _WINDLL /D _MBCS /Gm- /EHsc /MD /GS /Gy /fp:precise /Zc:wchar_t /Zc:forScope /Zc:inline /Fo"X64\DLL_RELEASE\\" /Fd"X64\DLL_RELEASE\VC140.PDB" /Gd /TC C:\GITHUB\HEAD-RECOGNITION\DARKNET\SRC\ROUTE_LAYER.C
^C:\GITHUB\HEAD-RECOGNITION\DARKNET\SRC\SHORTCUT_LAYER.C
/c /I\INCLUDE /IC:\OPENCV_3.0\OPENCV\BUILD\INCLUDE /I..\..\INCLUDE /I..\..\3RDPARTY\STB\INCLUDE /I..\..\3RDPARTY\PTHREADS\INCLUDE /I"..\..\..\..\..\PROGRAM FILES\NVIDIA GPU COMPUTING TOOLKIT\CUDA\V10.1\INCLUDE" /I"..\..\..\..\..\PROGRAM FILES\NVIDIA GPU COMPUTING TOOLKIT\CUDA\V10.1\INCLUDE" /I"C:\PROGRAM FILES\NVIDIA GPU COMPUTING TOOLKIT\CUDNN\INCLUDE" /I"C:\PROGRAM FILES\NVIDIA GPU COMPUTING TOOLKIT\CUDNN\INCLUDE" /Zi /nologo /W3 /WX- /sdl /O1 /Oi /GL /D CUDNN /D CUDNN_HALF /D GPU /D LIB_EXPORTS /D _TIMESPEC_DEFINED /D _SCL_SECURE_NO_WARNINGS /D _CRT_SECURE_NO_WARNINGS /D WIN32 /D NDEBUG /D _CONSOLE /D _LIB /D _WINDLL /D _MBCS /Gm- /EHsc /MD /GS /Gy /fp:precise /Zc:wchar_t /Zc:forScope /Zc:inline /Fo"X64\DLL_RELEASE\\" /Fd"X64\DLL_RELEASE\VC140.PDB" /Gd /TC C:\GITHUB\HEAD-RECOGNITION\DARKNET\SRC\SHORTCUT_LAYER.C
^C:\GITHUB\HEAD-RECOGNITION\DARKNET\SRC\SOFTMAX_LAYER.C
/c /I\INCLUDE /IC:\OPENCV_3.0\OPENCV\BUILD\INCLUDE /I..\..\INCLUDE /I..\..\3RDPARTY\STB\INCLUDE /I..\..\3RDPARTY\PTHREADS\INCLUDE /I"..\..\..\..\..\PROGRAM FILES\NVIDIA GPU COMPUTING TOOLKIT\CUDA\V10.1\INCLUDE" /I"..\..\..\..\..\PROGRAM FILES\NVIDIA GPU COMPUTING TOOLKIT\CUDA\V10.1\INCLUDE" /I"C:\PROGRAM FILES\NVIDIA GPU COMPUTING TOOLKIT\CUDNN\INCLUDE" /I"C:\PROGRAM FILES\NVIDIA GPU COMPUTING TOOLKIT\CUDNN\INCLUDE" /Zi /nologo /W3 /WX- /sdl /O1 /Oi /GL /D CUDNN /D CUDNN_HALF /D GPU /D LIB_EXPORTS /D _TIMESPEC_DEFINED /D _SCL_SECURE_NO_WARNINGS /D _CRT_SECURE_NO_WARNINGS /D WIN32 /D NDEBUG /D _CONSOLE /D _LIB /D _WINDLL /D _MBCS /Gm- /EHsc /MD /GS /Gy /fp:precise /Zc:wchar_t /Zc:forScope /Zc:inline /Fo"X64\DLL_RELEASE\\" /Fd"X64\DLL_RELEASE\VC140.PDB" /Gd /TC C:\GITHUB\HEAD-RECOGNITION\DARKNET\SRC\SOFTMAX_LAYER.C
^C:\GITHUB\HEAD-RECOGNITION\DARKNET\SRC\SUPER.C
/c /I\INCLUDE /IC:\OPENCV_3.0\OPENCV\BUILD\INCLUDE /I..\..\INCLUDE /I..\..\3RDPARTY\STB\INCLUDE /I..\..\3RDPARTY\PTHREADS\INCLUDE /I"..\..\..\..\..\PROGRAM FILES\NVIDIA GPU COMPUTING TOOLKIT\CUDA\V10.1\INCLUDE" /I"..\..\..\..\..\PROGRAM FILES\NVIDIA GPU COMPUTING TOOLKIT\CUDA\V10.1\INCLUDE" /I"C:\PROGRAM FILES\NVIDIA GPU COMPUTING TOOLKIT\CUDNN\INCLUDE" /I"C:\PROGRAM FILES\NVIDIA GPU COMPUTING TOOLKIT\CUDNN\INCLUDE" /Zi /nologo /W3 /WX- /sdl /O1 /Oi /GL /D CUDNN /D CUDNN_HALF /D GPU /D LIB_EXPORTS /D _TIMESPEC_DEFINED /D _SCL_SECURE_NO_WARNINGS /D _CRT_SECURE_NO_WARNINGS /D WIN32 /D NDEBUG /D _CONSOLE /D _LIB /D _WINDLL /D _MBCS /Gm- /EHsc /MD /GS /Gy /fp:precise /Zc:wchar_t /Zc:forScope /Zc:inline /Fo"X64\DLL_RELEASE\\" /Fd"X64\DLL_RELEASE\VC140.PDB" /Gd /TC C:\GITHUB\HEAD-RECOGNITION\DARKNET\SRC\SUPER.C
^C:\GITHUB\HEAD-RECOGNITION\DARKNET\SRC\SWAG.C
/c /I\INCLUDE /IC:\OPENCV_3.0\OPENCV\BUILD\INCLUDE /I..\..\INCLUDE /I..\..\3RDPARTY\STB\INCLUDE /I..\..\3RDPARTY\PTHREADS\INCLUDE /I"..\..\..\..\..\PROGRAM FILES\NVIDIA GPU COMPUTING TOOLKIT\CUDA\V10.1\INCLUDE" /I"..\..\..\..\..\PROGRAM FILES\NVIDIA GPU COMPUTING TOOLKIT\CUDA\V10.1\INCLUDE" /I"C:\PROGRAM FILES\NVIDIA GPU COMPUTING TOOLKIT\CUDNN\INCLUDE" /I"C:\PROGRAM FILES\NVIDIA GPU COMPUTING TOOLKIT\CUDNN\INCLUDE" /Zi /nologo /W3 /WX- /sdl /O1 /Oi /GL /D CUDNN /D CUDNN_HALF /D GPU /D LIB_EXPORTS /D _TIMESPEC_DEFINED /D _SCL_SECURE_NO_WARNINGS /D _CRT_SECURE_NO_WARNINGS /D WIN32 /D NDEBUG /D _CONSOLE /D _LIB /D _WINDLL /D _MBCS /Gm- /EHsc /MD /GS /Gy /fp:precise /Zc:wchar_t /Zc:forScope /Zc:inline /Fo"X64\DLL_RELEASE\\" /Fd"X64\DLL_RELEASE\VC140.PDB" /Gd /TC C:\GITHUB\HEAD-RECOGNITION\DARKNET\SRC\SWAG.C
^C:\GITHUB\HEAD-RECOGNITION\DARKNET\SRC\TAG.C
/c /I\INCLUDE /IC:\OPENCV_3.0\OPENCV\BUILD\INCLUDE /I..\..\INCLUDE /I..\..\3RDPARTY\STB\INCLUDE /I..\..\3RDPARTY\PTHREADS\INCLUDE /I"..\..\..\..\..\PROGRAM FILES\NVIDIA GPU COMPUTING TOOLKIT\CUDA\V10.1\INCLUDE" /I"..\..\..\..\..\PROGRAM FILES\NVIDIA GPU COMPUTING TOOLKIT\CUDA\V10.1\INCLUDE" /I"C:\PROGRAM FILES\NVIDIA GPU COMPUTING TOOLKIT\CUDNN\INCLUDE" /I"C:\PROGRAM FILES\NVIDIA GPU COMPUTING TOOLKIT\CUDNN\INCLUDE" /Zi /nologo /W3 /WX- /sdl /O1 /Oi /GL /D CUDNN /D CUDNN_HALF /D GPU /D LIB_EXPORTS /D _TIMESPEC_DEFINED /D _SCL_SECURE_NO_WARNINGS /D _CRT_SECURE_NO_WARNINGS /D WIN32 /D NDEBUG /D _CONSOLE /D _LIB /D _WINDLL /D _MBCS /Gm- /EHsc /MD /GS /Gy /fp:precise /Zc:wchar_t /Zc:forScope /Zc:inline /Fo"X64\DLL_RELEASE\\" /Fd"X64\DLL_RELEASE\VC140.PDB" /Gd /TC C:\GITHUB\HEAD-RECOGNITION\DARKNET\SRC\TAG.C
^C:\GITHUB\HEAD-RECOGNITION\DARKNET\SRC\TREE.C
/c /I\INCLUDE /IC:\OPENCV_3.0\OPENCV\BUILD\INCLUDE /I..\..\INCLUDE /I..\..\3RDPARTY\STB\INCLUDE /I..\..\3RDPARTY\PTHREADS\INCLUDE /I"..\..\..\..\..\PROGRAM FILES\NVIDIA GPU COMPUTING TOOLKIT\CUDA\V10.1\INCLUDE" /I"..\..\..\..\..\PROGRAM FILES\NVIDIA GPU COMPUTING TOOLKIT\CUDA\V10.1\INCLUDE" /I"C:\PROGRAM FILES\NVIDIA GPU COMPUTING TOOLKIT\CUDNN\INCLUDE" /I"C:\PROGRAM FILES\NVIDIA GPU COMPUTING TOOLKIT\CUDNN\INCLUDE" /Zi /nologo /W3 /WX- /sdl /O1 /Oi /GL /D CUDNN /D CUDNN_HALF /D GPU /D LIB_EXPORTS /D _TIMESPEC_DEFINED /D _SCL_SECURE_NO_WARNINGS /D _CRT_SECURE_NO_WARNINGS /D WIN32 /D NDEBUG /D _CONSOLE /D _LIB /D _WINDLL /D _MBCS /Gm- /EHsc /MD /GS /Gy /fp:precise /Zc:wchar_t /Zc:forScope /Zc:inline /Fo"X64\DLL_RELEASE\\" /Fd"X64\DLL_RELEASE\VC140.PDB" /Gd /TC C:\GITHUB\HEAD-RECOGNITION\DARKNET\SRC\TREE.C
^C:\GITHUB\HEAD-RECOGNITION\DARKNET\SRC\UPSAMPLE_LAYER.C
/c /I\INCLUDE /IC:\OPENCV_3.0\OPENCV\BUILD\INCLUDE /I..\..\INCLUDE /I..\..\3RDPARTY\STB\INCLUDE /I..\..\3RDPARTY\PTHREADS\INCLUDE /I"..\..\..\..\..\PROGRAM FILES\NVIDIA GPU COMPUTING TOOLKIT\CUDA\V10.1\INCLUDE" /I"..\..\..\..\..\PROGRAM FILES\NVIDIA GPU COMPUTING TOOLKIT\CUDA\V10.1\INCLUDE" /I"C:\PROGRAM FILES\NVIDIA GPU COMPUTING TOOLKIT\CUDNN\INCLUDE" /I"C:\PROGRAM FILES\NVIDIA GPU COMPUTING TOOLKIT\CUDNN\INCLUDE" /Zi /nologo /W3 /WX- /sdl /O1 /Oi /GL /D CUDNN /D CUDNN_HALF /D GPU /D LIB_EXPORTS /D _TIMESPEC_DEFINED /D _SCL_SECURE_NO_WARNINGS /D _CRT_SECURE_NO_WARNINGS /D WIN32 /D NDEBUG /D _CONSOLE /D _LIB /D _WINDLL /D _MBCS /Gm- /EHsc /MD /GS /Gy /fp:precise /Zc:wchar_t /Zc:forScope /Zc:inline /Fo"X64\DLL_RELEASE\\" /Fd"X64\DLL_RELEASE\VC140.PDB" /Gd /TC C:\GITHUB\HEAD-RECOGNITION\DARKNET\SRC\UPSAMPLE_LAYER.C
^C:\GITHUB\HEAD-RECOGNITION\DARKNET\SRC\UTILS.C
/c /I\INCLUDE /IC:\OPENCV_3.0\OPENCV\BUILD\INCLUDE /I..\..\INCLUDE /I..\..\3RDPARTY\STB\INCLUDE /I..\..\3RDPARTY\PTHREADS\INCLUDE /I"..\..\..\..\..\PROGRAM FILES\NVIDIA GPU COMPUTING TOOLKIT\CUDA\V10.1\INCLUDE" /I"..\..\..\..\..\PROGRAM FILES\NVIDIA GPU COMPUTING TOOLKIT\CUDA\V10.1\INCLUDE" /I"C:\PROGRAM FILES\NVIDIA GPU COMPUTING TOOLKIT\CUDNN\INCLUDE" /I"C:\PROGRAM FILES\NVIDIA GPU COMPUTING TOOLKIT\CUDNN\INCLUDE" /Zi /nologo /W3 /WX- /sdl /O1 /Oi /GL /D CUDNN /D CUDNN_HALF /D GPU /D LIB_EXPORTS /D _TIMESPEC_DEFINED /D _SCL_SECURE_NO_WARNINGS /D _CRT_SECURE_NO_WARNINGS /D WIN32 /D NDEBUG /D _CONSOLE /D _LIB /D _WINDLL /D _MBCS /Gm- /EHsc /MD /GS /Gy /fp:precise /Zc:wchar_t /Zc:forScope /Zc:inline /Fo"X64\DLL_RELEASE\\" /Fd"X64\DLL_RELEASE\VC140.PDB" /Gd /TC C:\GITHUB\HEAD-RECOGNITION\DARKNET\SRC\UTILS.C
^C:\GITHUB\HEAD-RECOGNITION\DARKNET\SRC\VOXEL.C
/c /I\INCLUDE /IC:\OPENCV_3.0\OPENCV\BUILD\INCLUDE /I..\..\INCLUDE /I..\..\3RDPARTY\STB\INCLUDE /I..\..\3RDPARTY\PTHREADS\INCLUDE /I"..\..\..\..\..\PROGRAM FILES\NVIDIA GPU COMPUTING TOOLKIT\CUDA\V10.1\INCLUDE" /I"..\..\..\..\..\PROGRAM FILES\NVIDIA GPU COMPUTING TOOLKIT\CUDA\V10.1\INCLUDE" /I"C:\PROGRAM FILES\NVIDIA GPU COMPUTING TOOLKIT\CUDNN\INCLUDE" /I"C:\PROGRAM FILES\NVIDIA GPU COMPUTING TOOLKIT\CUDNN\INCLUDE" /Zi /nologo /W3 /WX- /sdl /O1 /Oi /GL /D CUDNN /D CUDNN_HALF /D GPU /D LIB_EXPORTS /D _TIMESPEC_DEFINED /D _SCL_SECURE_NO_WARNINGS /D _CRT_SECURE_NO_WARNINGS /D WIN32 /D NDEBUG /D _CONSOLE /D _LIB /D _WINDLL /D _MBCS /Gm- /EHsc /MD /GS /Gy /fp:precise /Zc:wchar_t /Zc:forScope /Zc:inline /Fo"X64\DLL_RELEASE\\" /Fd"X64\DLL_RELEASE\VC140.PDB" /Gd /TC C:\GITHUB\HEAD-RECOGNITION\DARKNET\SRC\VOXEL.C
^C:\GITHUB\HEAD-RECOGNITION\DARKNET\SRC\WRITING.C
/c /I\INCLUDE /IC:\OPENCV_3.0\OPENCV\BUILD\INCLUDE /I..\..\INCLUDE /I..\..\3RDPARTY\STB\INCLUDE /I..\..\3RDPARTY\PTHREADS\INCLUDE /I"..\..\..\..\..\PROGRAM FILES\NVIDIA GPU COMPUTING TOOLKIT\CUDA\V10.1\INCLUDE" /I"..\..\..\..\..\PROGRAM FILES\NVIDIA GPU COMPUTING TOOLKIT\CUDA\V10.1\INCLUDE" /I"C:\PROGRAM FILES\NVIDIA GPU COMPUTING TOOLKIT\CUDNN\INCLUDE" /I"C:\PROGRAM FILES\NVIDIA GPU COMPUTING TOOLKIT\CUDNN\INCLUDE" /Zi /nologo /W3 /WX- /sdl /O1 /Oi /GL /D CUDNN /D CUDNN_HALF /D GPU /D LIB_EXPORTS /D _TIMESPEC_DEFINED /D _SCL_SECURE_NO_WARNINGS /D _CRT_SECURE_NO_WARNINGS /D WIN32 /D NDEBUG /D _CONSOLE /D _LIB /D _WINDLL /D _MBCS /Gm- /EHsc /MD /GS /Gy /fp:precise /Zc:wchar_t /Zc:forScope /Zc:inline /Fo"X64\DLL_RELEASE\\" /Fd"X64\DLL_RELEASE\VC140.PDB" /Gd /TC C:\GITHUB\HEAD-RECOGNITION\DARKNET\SRC\WRITING.C
^C:\GITHUB\HEAD-RECOGNITION\DARKNET\SRC\YOLO.C
/c /I\INCLUDE /IC:\OPENCV_3.0\OPENCV\BUILD\INCLUDE /I..\..\INCLUDE /I..\..\3RDPARTY\STB\INCLUDE /I..\..\3RDPARTY\PTHREADS\INCLUDE /I"..\..\..\..\..\PROGRAM FILES\NVIDIA GPU COMPUTING TOOLKIT\CUDA\V10.1\INCLUDE" /I"..\..\..\..\..\PROGRAM FILES\NVIDIA GPU COMPUTING TOOLKIT\CUDA\V10.1\INCLUDE" /I"C:\PROGRAM FILES\NVIDIA GPU COMPUTING TOOLKIT\CUDNN\INCLUDE" /I"C:\PROGRAM FILES\NVIDIA GPU COMPUTING TOOLKIT\CUDNN\INCLUDE" /Zi /nologo /W3 /WX- /sdl /O1 /Oi /GL /D CUDNN /D CUDNN_HALF /D GPU /D LIB_EXPORTS /D _TIMESPEC_DEFINED /D _SCL_SECURE_NO_WARNINGS /D _CRT_SECURE_NO_WARNINGS /D WIN32 /D NDEBUG /D _CONSOLE /D _LIB /D _WINDLL /D _MBCS /Gm- /EHsc /MD /GS /Gy /fp:precise /Zc:wchar_t /Zc:forScope /Zc:inline /Fo"X64\DLL_RELEASE\\" /Fd"X64\DLL_RELEASE\VC140.PDB" /Gd /TC C:\GITHUB\HEAD-RECOGNITION\DARKNET\SRC\YOLO.C
^C:\GITHUB\HEAD-RECOGNITION\DARKNET\SRC\YOLO_LAYER.C
/c /I\INCLUDE /IC:\OPENCV_3.0\OPENCV\BUILD\INCLUDE /I..\..\INCLUDE /I..\..\3RDPARTY\STB\INCLUDE /I..\..\3RDPARTY\PTHREADS\INCLUDE /I"..\..\..\..\..\PROGRAM FILES\NVIDIA GPU COMPUTING TOOLKIT\CUDA\V10.1\INCLUDE" /I"..\..\..\..\..\PROGRAM FILES\NVIDIA GPU COMPUTING TOOLKIT\CUDA\V10.1\INCLUDE" /I"C:\PROGRAM FILES\NVIDIA GPU COMPUTING TOOLKIT\CUDNN\INCLUDE" /I"C:\PROGRAM FILES\NVIDIA GPU COMPUTING TOOLKIT\CUDNN\INCLUDE" /Zi /nologo /W3 /WX- /sdl /O1 /Oi /GL /D CUDNN /D CUDNN_HALF /D GPU /D LIB_EXPORTS /D _TIMESPEC_DEFINED /D _SCL_SECURE_NO_WARNINGS /D _CRT_SECURE_NO_WARNINGS /D WIN32 /D NDEBUG /D _CONSOLE /D _LIB /D _WINDLL /D _MBCS /Gm- /EHsc /MD /GS /Gy /fp:precise /Zc:wchar_t /Zc:forScope /Zc:inline /Fo"X64\DLL_RELEASE\\" /Fd"X64\DLL_RELEASE\VC140.PDB" /Gd /TC C:\GITHUB\HEAD-RECOGNITION\DARKNET\SRC\YOLO_LAYER.C
^C:\GITHUB\HEAD-RECOGNITION\DARKNET\SRC\HTTP_STREAM.CPP
/c /I\INCLUDE /IC:\OPENCV_3.0\OPENCV\BUILD\INCLUDE /I..\..\INCLUDE /I..\..\3RDPARTY\STB\INCLUDE /I..\..\3RDPARTY\PTHREADS\INCLUDE /I"..\..\..\..\..\PROGRAM FILES\NVIDIA GPU COMPUTING TOOLKIT\CUDA\V10.1\INCLUDE" /I"..\..\..\..\..\PROGRAM FILES\NVIDIA GPU COMPUTING TOOLKIT\CUDA\V10.1\INCLUDE" /I"C:\PROGRAM FILES\NVIDIA GPU COMPUTING TOOLKIT\CUDNN\INCLUDE" /I"C:\PROGRAM FILES\NVIDIA GPU COMPUTING TOOLKIT\CUDNN\INCLUDE" /Zi /nologo /W3 /WX- /sdl /O1 /Oi /GL /D CUDNN /D CUDNN_HALF /D GPU /D LIB_EXPORTS /D _TIMESPEC_DEFINED /D _SCL_SECURE_NO_WARNINGS /D _CRT_SECURE_NO_WARNINGS /D WIN32 /D NDEBUG /D _CONSOLE /D _LIB /D _WINDLL /D _MBCS /Gm- /EHsc /MD /GS /Gy /fp:precise /Zc:wchar_t /Zc:forScope /Zc:inline /Fo"X64\DLL_RELEASE\\" /Fd"X64\DLL_RELEASE\VC140.PDB" /Gd /TP C:\GITHUB\HEAD-RECOGNITION\DARKNET\SRC\HTTP_STREAM.CPP
^C:\GITHUB\HEAD-RECOGNITION\DARKNET\SRC\IMAGE_OPENCV.CPP
/c /I\INCLUDE /IC:\OPENCV_3.0\OPENCV\BUILD\INCLUDE /I..\..\INCLUDE /I..\..\3RDPARTY\STB\INCLUDE /I..\..\3RDPARTY\PTHREADS\INCLUDE /I"..\..\..\..\..\PROGRAM FILES\NVIDIA GPU COMPUTING TOOLKIT\CUDA\V10.1\INCLUDE" /I"..\..\..\..\..\PROGRAM FILES\NVIDIA GPU COMPUTING TOOLKIT\CUDA\V10.1\INCLUDE" /I"C:\PROGRAM FILES\NVIDIA GPU COMPUTING TOOLKIT\CUDNN\INCLUDE" /I"C:\PROGRAM FILES\NVIDIA GPU COMPUTING TOOLKIT\CUDNN\INCLUDE" /Zi /nologo /W3 /WX- /sdl /O1 /Oi /GL /D CUDNN /D CUDNN_HALF /D GPU /D LIB_EXPORTS /D _TIMESPEC_DEFINED /D _SCL_SECURE_NO_WARNINGS /D _CRT_SECURE_NO_WARNINGS /D WIN32 /D NDEBUG /D _CONSOLE /D _LIB /D _WINDLL /D _MBCS /Gm- /EHsc /MD /GS /Gy /fp:precise /Zc:wchar_t /Zc:forScope /Zc:inline /Fo"X64\DLL_RELEASE\\" /Fd"X64\DLL_RELEASE\VC140.PDB" /Gd /TP C:\GITHUB\HEAD-RECOGNITION\DARKNET\SRC\IMAGE_OPENCV.CPP
^C:\GITHUB\HEAD-RECOGNITION\DARKNET\SRC\YOLO_V2_CLASS.CPP
/c /I\INCLUDE /IC:\OPENCV_3.0\OPENCV\BUILD\INCLUDE /I..\..\INCLUDE /I..\..\3RDPARTY\STB\INCLUDE /I..\..\3RDPARTY\PTHREADS\INCLUDE /I"..\..\..\..\..\PROGRAM FILES\NVIDIA GPU COMPUTING TOOLKIT\CUDA\V10.1\INCLUDE" /I"..\..\..\..\..\PROGRAM FILES\NVIDIA GPU COMPUTING TOOLKIT\CUDA\V10.1\INCLUDE" /I"C:\PROGRAM FILES\NVIDIA GPU COMPUTING TOOLKIT\CUDNN\INCLUDE" /I"C:\PROGRAM FILES\NVIDIA GPU COMPUTING TOOLKIT\CUDNN\INCLUDE" /Zi /nologo /W3 /WX- /sdl /O1 /Oi /GL /D CUDNN /D CUDNN_HALF /D GPU /D LIB_EXPORTS /D _TIMESPEC_DEFINED /D _SCL_SECURE_NO_WARNINGS /D _CRT_SECURE_NO_WARNINGS /D WIN32 /D NDEBUG /D _CONSOLE /D _LIB /D _WINDLL /D _MBCS /Gm- /EHsc /MD /GS /Gy /fp:precise /Zc:wchar_t /Zc:forScope /Zc:inline /Fo"X64\DLL_RELEASE\\" /Fd"X64\DLL_RELEASE\VC140.PDB" /Gd /TP C:\GITHUB\HEAD-RECOGNITION\DARKNET\SRC\YOLO_V2_CLASS.CPP
^C:\GITHUB\HEAD-RECOGNITION\DARKNET\SRC\IMAGE.C
/c /I\INCLUDE /IC:\OPENCV_3.0\OPENCV\BUILD\INCLUDE /I..\..\INCLUDE /I..\..\3RDPARTY\STB\INCLUDE /I..\..\3RDPARTY\PTHREADS\INCLUDE /I"..\..\..\..\..\PROGRAM FILES\NVIDIA GPU COMPUTING TOOLKIT\CUDA\V10.1\INCLUDE" /I"..\..\..\..\..\PROGRAM FILES\NVIDIA GPU COMPUTING TOOLKIT\CUDA\V10.1\INCLUDE" /I"C:\PROGRAM FILES\NVIDIA GPU COMPUTING TOOLKIT\CUDNN\INCLUDE" /I"C:\PROGRAM FILES\NVIDIA GPU COMPUTING TOOLKIT\CUDNN\INCLUDE" /Zi /nologo /W3 /WX- /sdl /O1 /Oi /GL /D CUDNN /D CUDNN_HALF /D GPU /D LIB_EXPORTS /D _TIMESPEC_DEFINED /D _SCL_SECURE_NO_WARNINGS /D _CRT_SECURE_NO_WARNINGS /D WIN32 /D NDEBUG /D _CONSOLE /D _LIB /D _WINDLL /D _MBCS /Gm- /EHsc /MD /GS /Gy /fp:precise /Zc:wchar_t /Zc:forScope /Zc:inline /Fo"X64\DLL_RELEASE\\" /Fd"X64\DLL_RELEASE\VC140.PDB" /Gd /TC C:\GITHUB\HEAD-RECOGNITION\DARKNET\SRC\IMAGE.C
